<svg width="37" height="29" viewBox="0 0 37 29" fill="none" xmlns="http://www.w3.org/2000/svg">
<path d="M33.1695 3.81578H20.5474L18.033 0.838052C17.9501 0.739632 17.8278 0.683059 17.699 0.683598H7.52299C5.95977 0.683598 4.69253 1.95084 4.69253 3.51406V4.34021H3.83046C2.26868 4.34021 1.00198 5.60529 1 7.16707V25.486C1 27.0493 2.26724 28.3165 3.83046 28.3165H29.477C31.0402 28.3165 32.3075 27.0493 32.3075 25.486V24.6599H33.1695C34.7328 24.6599 36 23.3926 36 21.8294V6.64624C36 5.08302 34.7328 3.81578 33.1695 3.81578ZM31.431 23.8086V25.504C31.4291 26.5844 30.5538 27.4596 29.4734 27.4616H3.83046C2.75009 27.4596 1.87482 26.5844 1.87284 25.504V7.18503C1.87482 6.10466 2.75009 5.22939 3.83046 5.22742H13.8305L16.3448 8.20515C16.4278 8.30357 16.5501 8.36014 16.6789 8.3596H29.5022C30.5657 8.37711 31.4214 9.23918 31.431 10.3028V23.8086ZM35.1236 21.851C35.1216 22.9314 34.2463 23.8066 33.1659 23.8086H32.3039V10.3028C32.3039 8.73963 31.0366 7.47239 29.4734 7.47239H16.8549L14.3405 4.49466C14.2575 4.39624 14.1352 4.33967 14.0065 4.34021H5.56897V3.51406C5.57094 2.43369 6.44621 1.55842 7.52658 1.55644H17.5122L20.0266 4.53417C20.1096 4.63259 20.2319 4.68917 20.3606 4.68863H33.1839C34.2643 4.6906 35.1395 5.56587 35.1415 6.64624L35.1236 21.851Z" fill="#296DB0" stroke="#296DB0" stroke-width="0.5"/>
</svg>
