<svg width="57" height="25" viewBox="0 0 57 25" fill="none" xmlns="http://www.w3.org/2000/svg">
<rect width="57" height="25" rx="2" transform="matrix(1 0 0 -1 0 25)" fill="#D92429"/>
<path d="M38.5 11.2503V7.16699H45.5V11.2503" stroke="white" stroke-linecap="round" stroke-linejoin="round"/>
<path d="M38.5003 16.5H37.3337C37.0242 16.5 36.7275 16.3771 36.5087 16.1583C36.2899 15.9395 36.167 15.6428 36.167 15.3333V12.4167C36.167 12.1072 36.2899 11.8105 36.5087 11.5917C36.7275 11.3729 37.0242 11.25 37.3337 11.25H46.667C46.9764 11.25 47.2732 11.3729 47.492 11.5917C47.7107 11.8105 47.8337 12.1072 47.8337 12.4167V15.3333C47.8337 15.6428 47.7107 15.9395 47.492 16.1583C47.2732 16.3771 46.9764 16.5 46.667 16.5H45.5003" stroke="white" stroke-linecap="round" stroke-linejoin="round"/>
<path d="M45.5 14.167H38.5V18.8337H45.5V14.167Z" stroke="white" stroke-linecap="round" stroke-linejoin="round"/>
<path d="M8.57386 16V10.1818H10.8011C11.2216 10.1818 11.571 10.2481 11.8494 10.3807C12.1297 10.5114 12.339 10.6903 12.4773 10.9176C12.6174 11.1449 12.6875 11.4025 12.6875 11.6903C12.6875 11.9271 12.642 12.1297 12.5511 12.2983C12.4602 12.465 12.3381 12.6004 12.1847 12.7045C12.0312 12.8087 11.8598 12.8835 11.6705 12.929V12.9858C11.8769 12.9972 12.0748 13.0606 12.2642 13.1761C12.4555 13.2898 12.6117 13.4508 12.733 13.6591C12.8542 13.8674 12.9148 14.1193 12.9148 14.4148C12.9148 14.7159 12.8419 14.9867 12.696 15.2273C12.5502 15.4659 12.3305 15.6544 12.0369 15.7926C11.7434 15.9309 11.3741 16 10.929 16H8.57386ZM9.62784 15.1193H10.7614C11.1439 15.1193 11.4195 15.0464 11.5881 14.9006C11.7585 14.7528 11.8438 14.5634 11.8438 14.3324C11.8438 14.16 11.8011 14.0047 11.7159 13.8665C11.6307 13.7263 11.5095 13.6165 11.3523 13.5369C11.1951 13.4555 11.0076 13.4148 10.7898 13.4148H9.62784V15.1193ZM9.62784 12.6562H10.6705C10.8523 12.6562 11.0161 12.6231 11.1619 12.5568C11.3078 12.4886 11.4223 12.393 11.5057 12.2699C11.5909 12.1449 11.6335 11.9972 11.6335 11.8267C11.6335 11.6013 11.554 11.4157 11.3949 11.2699C11.2377 11.1241 11.0038 11.0511 10.6932 11.0511H9.62784V12.6562ZM15.0419 16.0881C14.7654 16.0881 14.5163 16.0388 14.2947 15.9403C14.075 15.84 13.9008 15.6922 13.772 15.4972C13.6451 15.3021 13.5817 15.0616 13.5817 14.7756C13.5817 14.5294 13.6271 14.3258 13.718 14.1648C13.8089 14.0038 13.933 13.875 14.0902 13.7784C14.2474 13.6818 14.4245 13.6089 14.6214 13.5597C14.8203 13.5085 15.0258 13.4716 15.2379 13.4489C15.4936 13.4223 15.701 13.3987 15.8601 13.3778C16.0192 13.3551 16.1347 13.321 16.2067 13.2756C16.2805 13.2282 16.3175 13.1553 16.3175 13.0568V13.0398C16.3175 12.8258 16.254 12.66 16.1271 12.5426C16.0002 12.4252 15.8175 12.3665 15.5788 12.3665C15.3269 12.3665 15.1271 12.4214 14.9794 12.5312C14.8336 12.6411 14.7351 12.7708 14.6839 12.9205L13.7237 12.7841C13.7995 12.5189 13.9245 12.2973 14.0987 12.1193C14.273 11.9394 14.486 11.8049 14.7379 11.7159C14.9898 11.625 15.2682 11.5795 15.5732 11.5795C15.7834 11.5795 15.9927 11.6042 16.201 11.6534C16.4093 11.7027 16.5997 11.7841 16.772 11.8977C16.9444 12.0095 17.0826 12.1619 17.1868 12.3551C17.2929 12.5483 17.3459 12.7898 17.3459 13.0795V16H16.3572V15.4006H16.3232C16.2607 15.5218 16.1726 15.6354 16.0589 15.7415C15.9472 15.8456 15.8061 15.9299 15.6357 15.9943C15.4671 16.0568 15.2692 16.0881 15.0419 16.0881ZM15.3089 15.3324C15.5154 15.3324 15.6944 15.2917 15.8459 15.2102C15.9974 15.1269 16.1139 15.017 16.1953 14.8807C16.2786 14.7443 16.3203 14.5956 16.3203 14.4347V13.9205C16.2881 13.947 16.2332 13.9716 16.1555 13.9943C16.0798 14.017 15.9946 14.0369 15.8999 14.054C15.8052 14.071 15.7114 14.0862 15.6186 14.0994C15.5258 14.1127 15.4453 14.1241 15.3771 14.1335C15.2237 14.1544 15.0864 14.1884 14.9652 14.2358C14.844 14.2831 14.7483 14.3494 14.6783 14.4347C14.6082 14.518 14.5732 14.6259 14.5732 14.7585C14.5732 14.9479 14.6423 15.0909 14.7805 15.1875C14.9188 15.2841 15.0949 15.3324 15.3089 15.3324ZM16.0135 11.0227H15.2294L15.1896 10.4773C15.3904 10.4697 15.5324 10.4441 15.6158 10.4006C15.6991 10.3551 15.7398 10.2926 15.7379 10.2131C15.7398 10.1108 15.6849 10.0398 15.5732 10C15.4614 9.96023 15.3232 9.94034 15.1584 9.94034L15.1839 9.43182C15.6536 9.43182 16.0097 9.5 16.2521 9.63636C16.4946 9.77273 16.6148 9.95833 16.6129 10.1932C16.6148 10.3731 16.5533 10.5076 16.4283 10.5966C16.3033 10.6837 16.165 10.7386 16.0135 10.7614V11.0227ZM19.4084 13.4432V16H18.38V11.6364H19.3629V12.3778H19.4141C19.5144 12.1335 19.6745 11.9394 19.8942 11.7955C20.1158 11.6515 20.3894 11.5795 20.7152 11.5795C21.0163 11.5795 21.2786 11.6439 21.5021 11.7727C21.7275 11.9015 21.9018 12.0881 22.0249 12.3324C22.1499 12.5767 22.2114 12.8731 22.2095 13.2216V16H21.1811V13.3807C21.1811 13.089 21.1054 12.8608 20.9538 12.696C20.8042 12.5312 20.5968 12.4489 20.3317 12.4489C20.1518 12.4489 19.9917 12.4886 19.8516 12.5682C19.7133 12.6458 19.6044 12.7585 19.5249 12.9062C19.4472 13.054 19.4084 13.233 19.4084 13.4432ZM25.2393 16V11.6364H26.2678V16H25.2393ZM25.7564 11.017C25.5935 11.017 25.4534 10.9631 25.3359 10.8551C25.2185 10.7453 25.1598 10.6136 25.1598 10.4602C25.1598 10.3049 25.2185 10.1733 25.3359 10.0653C25.4534 9.95549 25.5935 9.90057 25.7564 9.90057C25.9212 9.90057 26.0613 9.95549 26.1768 10.0653C26.2943 10.1733 26.353 10.3049 26.353 10.4602C26.353 10.6136 26.2943 10.7453 26.1768 10.8551C26.0613 10.9631 25.9212 11.017 25.7564 11.017ZM28.3537 13.4432V16H27.3253V11.6364H28.3082V12.3778H28.3594C28.4598 12.1335 28.6198 11.9394 28.8395 11.7955C29.0611 11.6515 29.3348 11.5795 29.6605 11.5795C29.9616 11.5795 30.224 11.6439 30.4474 11.7727C30.6728 11.9015 30.8471 12.0881 30.9702 12.3324C31.0952 12.5767 31.1567 12.8731 31.1548 13.2216V16H30.1264V13.3807C30.1264 13.089 30.0507 12.8608 29.8991 12.696C29.7495 12.5312 29.5421 12.4489 29.277 12.4489C29.0971 12.4489 28.937 12.4886 28.7969 12.5682C28.6586 12.6458 28.5497 12.7585 28.4702 12.9062C28.3925 13.054 28.3537 13.233 28.3537 13.4432Z" fill="white"/>
</svg>
