<svg width="204" height="211" viewBox="0 0 204 211" fill="none" xmlns="http://www.w3.org/2000/svg">
<g clip-path="url(#clip0_6416_76722)">
<path d="M190.499 149.1L190.399 149.3L189.899 150.4L189.799 150.2L189.299 151.1L188.899 152L188.399 152.8L187.799 153.7L187.299 154.5L186.799 155.4L186.199 156.2L186.299 156.4V157.3V158.3L186.399 159.3V160.2L186.899 159.5L187.299 158.7L187.799 157.9L187.299 157.3L187.399 158L187.099 157.2L186.799 156.3L187.799 156.6L187.699 155.6L187.499 154.6L188.499 154.8L189.399 154.9L189.899 154.1L190.299 153.2L190.799 152.3L191.199 151.5L191.599 150.6L190.899 150L190.499 149.1Z" fill="#ED0000"/>
<path d="M110.9 5.60078H111.7L112.5 5.70078V5.30078L112.6 5.70078L113.5 5.80078L114.4 5.90078L115.3 6.00078L116.2 6.10078L117.1 6.20078L117 5.30078L117.4 5.20078L116.5 4.30078L116.7 3.20078L116.9 2.10078L117.1 1.00078L116.1 0.900781L115.1 0.800781L114.1 0.600781L113.1 0.500781L112.1 0.400781L111.1 0.300781V1.40078L110.9 2.50078L110.6 3.50078L110.9 4.60078V5.60078ZM113.9 2.20078V3.00078V3.80078L113.6 2.80078L113.2 1.80078L113.9 2.20078Z" fill="#ED0000"/>
<path d="M118.3 3.9L118.2 4.9L118 5.9L117.4 5.4L117.8 6.2L117.7 6.4L118.5 6.5L119.1 6.6L120 6.8L120.9 7H122L122.9 7.2L123.8 7.4L124.7 7.6L125.6 7.7L126.5 8L127.4 8.3L128.3 8.6L129.2 8.8L130.1 9.1L131 9.3L131.9 9.6L132.8 9.9L133.7 10.2L134.6 10.5L135.4 10.9L136.3 11.1L137.1 11.5L138 11.7L138.8 12.1L139.1 11.2L139.4 10.2L139.7 9.2L139 9L139.9 8.6L140.8 8.2L141.7 8H142.7L141.8 7.6L140.9 7.3L140.1 7L139.2 6.7L138.3 6.4L137.5 6L136.6 5.8L135.7 5.5L134.8 5.1L133.9 4.9L133 4.6L132.1 4.3L131.2 4L131.3 5.1L131.5 6.1L131.2 7L130.4 7.2L130.1 6.4L129.9 5.5L129.6 4.6L129 3.9L129.7 4.6L129.9 3.6L128.9 3.4L128 3.1L127 2.9L126 2.7L125 2.4L124 2.2L123 2L122 1.8L121 1.6L120 1.4L119.5 1.8L118.7 1.6L118.1 1.8L118 1.2L116.9 1V2L117.2 3L117.7 3.9H118.3ZM132.8 6L133.7 6.8L132.5 7.3L132.6 6.7L132.8 6ZM118.9 3.6L119.9 3.7L119.2 4.1L118.6 4.6L118.9 3.6Z" fill="#ED0000"/>
<path d="M194.201 60.3008L193.801 61.1008L193.601 62.0008L193.901 62.9008L194.401 63.7008L194.501 64.6008L194.901 65.5008L194.201 65.8008L193.901 64.9008L194.001 63.9008L193.601 63.0008L193.201 62.2008L192.501 61.9008L193.101 62.9008V63.9008L192.901 64.6008L192.501 63.7008L192.101 62.8008L191.401 62.1008L190.901 61.3008L189.801 61.4008L190.301 62.3008L190.601 63.2008L191.001 64.1008L191.701 64.8008L191.801 65.8008L192.401 66.6008L192.801 67.5008L193.201 68.4008L193.601 69.3008L193.801 70.2008L194.301 71.0008L194.601 71.9008L194.901 72.8008L195.201 73.7008L195.501 74.6008L195.901 75.5008L196.201 76.4008L196.401 77.3008V78.3008L196.801 79.2008L197.301 80.0008L197.501 80.9008V81.9008L197.901 82.7008L198.301 83.2008L198.101 84.0008V85.0008L198.401 85.9008L198.701 86.8008L199.001 87.7008L199.101 88.7008L199.401 89.6008V90.6008L199.501 91.6008L199.401 92.6008L199.601 93.5008L199.901 94.4008V95.4008L200.101 96.3008L200.201 97.3008V98.3008L200.301 99.3008L200.701 100.301L201.301 101.201L201.501 102.301L200.901 103.301L201.401 104.301V105.301L201.501 106.301L201.201 107.001L200.701 106.001V106.801V107.801L200.801 108.801L200.901 109.801L200.801 110.801V111.801L200.901 112.801L200.801 113.801L200.501 114.701V115.701L200.301 116.601L200.401 117.601L200.501 118.601L200.201 119.501L200.001 120.401L199.701 121.301V122.301L199.401 123.201L199.301 124.201L199.101 125.101L198.901 126.001V127.001L198.601 127.901L198.201 128.801L197.901 129.701L197.601 130.601L197.401 131.501L197.201 132.301L198.401 132.001L198.801 131.201L198.901 130.301L199.101 129.401L199.301 128.501L199.601 127.601L199.901 126.701L200.201 125.801L200.401 124.901L200.601 124.001L200.901 123.101V122.101L201.201 121.201L201.501 120.301L201.401 119.301L201.901 118.401L201.801 117.401L202.101 116.501L202.301 115.601L202.201 114.601L202.701 113.701L202.601 112.701L202.801 111.801L202.901 110.901L203.001 110.001L203.101 109.101L203.201 108.201L203.301 107.301V106.401V105.501L203.401 104.601V103.701V102.801L203.601 102.401L202.801 102.201L203.501 101.201L203.601 100.401L203.901 99.5008V98.6008L203.501 97.7008L203.701 96.8008V95.9008V95.0008L203.601 94.1008L203.701 93.2008L203.801 92.2008L203.501 91.3008V90.4008V89.5008L203.401 88.6008L203.201 87.7008L203.101 86.8008L202.801 85.9008L203.101 84.9008L202.901 84.0008L202.701 83.1008L202.501 82.2008V81.3008L202.201 80.4008L202.001 79.5008V78.5008L201.801 77.6008L201.301 76.7008V75.7008L200.801 74.8008L200.701 73.9008L200.501 73.0008L200.301 72.1008L200.101 71.2008L199.901 70.3008L199.601 69.4008L199.101 68.6008L198.801 67.7008L198.401 66.9008L198.101 66.0008L197.801 65.1008V64.1008L197.301 63.3008L197.001 62.4008L196.701 61.5008L195.901 61.3008L195.101 60.9008L194.201 60.3008ZM199.501 73.9008L199.801 74.8008L200.101 75.6008L200.601 76.3008V77.1008L200.501 78.1008L201.001 78.9008L200.601 78.1008L199.701 78.4008L199.101 78.6008L198.601 77.8008L198.301 76.7008L199.601 76.3008L199.301 75.1008L199.501 73.9008Z" fill="#ED0000"/>
<path d="M144.001 9.60078L143.901 10.3008L143.701 11.0008V11.8008L144.101 12.5008L143.401 12.4008L142.801 11.9008L142.901 13.0008L143.001 14.0008L143.901 14.3008L144.701 14.7008L145.401 15.2008L145.601 14.8008V15.1008L146.301 15.6008L147.101 16.0008L147.901 16.5008L148.701 16.9008L149.401 17.5008L150.301 17.9008L151.201 18.2008L151.901 18.9008L152.801 19.2008L153.501 19.8008L154.201 20.4008L155.001 20.8008L155.701 21.4008L156.401 22.0008L157.301 22.4008L158.101 22.9008L158.801 23.5008L159.601 24.0008L160.201 24.5008L160.401 23.6008L160.601 24.3008L160.801 25.2008L161.601 25.6008L162.201 26.2008L163.301 26.0008L164.201 26.5008L164.801 27.3008L164.901 28.4008L165.601 29.0008L166.301 29.5008L166.801 30.2008L167.501 30.7008L168.101 31.3008L168.301 31.4008L168.201 31.5008L168.801 32.2008L169.501 32.9008L170.301 33.5008L170.801 34.3008L171.601 34.9008L172.301 35.6008L172.901 36.4008L173.701 36.9008L174.301 37.6008L174.901 38.4008L175.601 39.1008L176.001 40.0008L176.801 40.6008L177.301 41.5008L178.001 42.1008L178.601 42.9008L179.001 43.8008L179.601 44.6008L180.301 45.3008L180.901 46.1008L181.501 46.9008L182.101 47.7008L182.501 48.6008L183.201 49.3008L183.601 50.2008L183.701 50.4008L184.101 50.9008L184.701 51.7008L185.101 52.6008L185.701 53.4008L186.201 54.2008L186.601 55.1008L187.001 56.0008L187.701 56.7008L187.901 57.7008L188.401 58.5008L188.901 59.3008L189.401 60.1008L189.801 60.9008L190.001 60.0008L190.301 59.2008L190.401 58.3008V57.4008V56.6008L189.301 56.5008L189.901 55.9008L190.301 55.1008L190.601 54.2008L190.401 53.5008L190.601 54.1008L190.401 54.2008L191.001 55.1008L191.201 54.3008L191.001 53.4008L191.501 54.5008L192.101 55.4008L192.601 54.7008L192.901 53.8008L192.801 52.9008L192.401 52.2008L192.101 51.3008L191.801 50.5008L191.201 49.8008L190.801 49.0008H190.401L190.301 50.1008L189.901 50.2008L190.301 48.9008L190.601 48.8008L190.101 47.9008L189.501 47.1008L188.901 46.3008L188.301 45.5008L187.901 44.6008L187.301 43.8008L186.701 43.0008L186.101 43.6008L186.001 42.2008L185.401 41.5008L184.901 40.7008L184.401 39.9008L183.801 39.2008L183.201 38.5008L182.701 37.7008L182.001 37.1008L181.501 36.3008L181.001 35.5008L180.301 34.9008L179.801 34.1008L179.101 33.5008L178.401 32.8008L177.701 32.2008L177.001 31.0008L176.301 30.4008L175.501 29.8008L174.901 29.1008L174.201 28.5008L173.601 27.8008L172.901 27.2008L172.201 26.6008L171.501 26.0008L170.701 25.4008L170.101 24.7008L169.401 24.1008L168.701 23.4008L167.801 23.0008L167.001 22.4008L166.401 21.6008L165.501 21.2008L164.801 20.5008L164.001 20.1008L163.201 19.6008L162.501 18.9008L161.701 18.4008L160.901 17.9008L160.101 17.5008L159.701 18.2008L159.101 18.0008L159.301 16.9008L158.501 16.3008L157.701 15.7008L156.801 15.3008L156.001 14.7008L155.101 14.3008L154.201 13.9008L153.501 13.2008L152.601 12.8008L151.801 12.3008L151.001 11.8008L150.001 11.6008L149.201 11.0008L148.301 10.6008L147.401 10.2008L146.601 9.70078L145.701 9.30078L144.901 9.00078L144.001 8.60078L143.101 8.30078L143.701 8.80078L144.001 9.60078ZM187.101 44.2008V45.1008L186.501 45.4008L186.001 44.5008L186.601 44.3008L187.101 44.2008ZM167.301 26.0008L167.401 27.0008L167.801 27.7008L167.901 28.5008L167.701 29.2008L167.101 28.7008L167.401 27.9008V27.1008L167.301 26.0008Z" fill="#ED0000"/>
<path d="M10.1992 149.5L10.5992 150.4L10.9992 151.2L10.5992 150.3L10.1992 149.4V149.5Z" fill="#ED0000"/>
<path d="M1.7 120.301L1.5 121.501L1.6 122.101L2.5 122.501L3.2 122.901L3.1 121.901L3 120.801L1.7 120.301Z" fill="#ED0000"/>
<path d="M185.4 157.4L184.6 158.1L184 158.9L183.7 159.9L182.9 160.4L182.3 161.2L181.8 161.9L181.4 162.9L180.9 163.7L180.2 164.3L179.7 165.2L179.1 165.9L178.3 166.5L177.7 167.2L177 167.9L176.3 168.5L176.1 169.6L175.1 170L174.7 170.9L174 171.6L173 172L172.7 173L171.8 173.4L171 174L170.5 174.8L169.6 175.3L169.2 176.3L168.1 176.5L167.4 177.1L166.9 178.1L166 178.4L165.3 179.1L164.6 179.7L164 180.5L163.3 181.2L162.4 181.6L161.6 182.1L160.8 182.6L160.2 183.3L159.5 184.1L158.7 184.6L157.8 185L157 185.5L156.1 185.9L155.4 186.6L154.7 187.3L153.8 187.5L153 188.1L152 188.3L151.5 189.3L150.6 189.7H149.5L148.7 190.2L148.1 191L147.2 191.5L146.4 191.9L145.4 192.1L144.6 192.6L143.8 193.1L143 193.7L142.1 194.1L141.3 194.6H140.2L139.5 195.2H138.4L137.6 195.7L136.7 195.9L136 196.8L134.9 196.7L134.2 197.5L133.3 197.8H132.3L131.4 198.3L130.6 198.8L129.5 198.6L128.7 199L127.9 199.7H126.9L126 200.1L125 200.2L124.1 200.4L123.2 200.7L122.3 201.1H121.3L120.5 201.6L119.6 201.9L118.6 202L117.6 202.1L116.7 202L115.6 202.3V203.5L115.7 204.6V205.6L115 206.5L114.2 206.3L113.3 206L113.1 204.9L112.8 204L112.1 203.4L111.3 203L110.4 203.2L109.6 203.8H108.6L107.7 203.5L106.8 204.1L105.9 203.8L105 204L104 204.1L103.2 204.5H102.2L101.3 204.6H100.4L99.5004 204.4L98.5004 204.6L97.6004 204.5L96.7004 204.6L95.8004 204.7L94.8004 205L93.9004 204.8L93.0004 204.7L92.0004 204.5L91.1004 204.4L90.2004 204.6L89.3004 204.3L88.3004 204.5L87.4004 204.7L86.5004 204.4L85.6004 204.3L84.6004 204.2H83.7004L82.8004 203.8L81.9004 203.7L81.0004 203.6L80.0004 203.9L79.3004 203.7L78.9004 204.4L78.4004 203.1L77.3004 203.3L76.0004 202.8L76.6004 204.1L76.5004 205.3L75.8004 204.6L75.2004 203.7L75.8004 202.8L74.7004 202.7L73.9004 202.6L74.2004 203.3L74.8004 203.9L74.5004 205L75.7004 204.9L76.5004 205.7L77.4004 206L78.4004 206.1L79.3004 206.2L80.3004 206.3L81.2004 206.7L82.2004 206.8L83.1004 206.9L84.0004 207.4H85.0004L85.8004 207.9L86.8004 207.8L87.7004 208.2L88.6004 208.6L89.7004 208.3L90.6004 208.7L91.5004 209.1L92.4004 209.2H93.4004L94.3004 209.5L95.3004 209.3H96.3004H97.3004L98.2004 209.9H99.1004L100.1 210.1L101.1 209.7H102L103 210H103.9L104.9 209.9L105.8 209.6L106.8 209.9H107.8L108.7 209.3L109.6 209.2L110.7 209.6L111.5 209L112.6 209.3L113.5 209L114.4 208.9L115.4 208.8H116.4L117.3 208.5L118.2 208.2L119.1 207.9L120.1 208L121 207.6L121.9 207.1L122.9 207.2L123.8 206.8L124.7 206.6L125.6 206.2L126.7 206.4L127.6 206.1L128.4 205.6L129.3 205.2L130.2 204.8L131.1 204.6L132 204.2L132.9 203.9L133.6 203.7L134.3 203.2L134.2 203.8L135 203.6L135.9 203.4L136.5 202.6L137.4 202.5L137.1 202.2L137.5 201.4L137.9 200.5L138.4 200.4L138.7 199.7L138.9 200.9L138.4 201.8V202.2L139.1 201.5L139.8 201.3L140.2 200.4L139.8 199.5V198.5L139.7 197.6L140.1 196.7L140 197.7L140.5 198.7L141.7 198.8L142.3 197.8L142.1 196.8V195.6L142 194.6L142.7 194.4H143.7L144.5 194.1L145.2 193.6H146L146.8 193.8L147.6 194.3V195.3L148 196.3L148.2 197.3L148.9 196.5L149.8 196L150.8 195.7L150.5 194.9L150.8 194L151.3 193.3L151.6 193.2H152.3L151.9 194.2L152 195L153 194.2L153.2 193.7L153.5 194.2L154.3 193.5L155.1 193L155.9 192.5L156.9 192.3L157.5 191.5L158.2 190.8L158.9 190.1L159.7 189.7L160.5 189.2L161.2 188.4L162.1 188.1L162.6 187.2L163.7 187L164.1 186L164.7 185.3L165.6 184.8L166.4 184.3L167.3 183.9L167.9 183.1L168.5 182.3L169.1 181.6L169.8 180.9L170.7 180.6L171.3 179.8L172 179.1L172.6 178.4L173.3 177.7L173.7 176.8L174.6 176.4L175.1 175.5L175.9 174.9L176 173.8L176.3 172.7L176.7 173.5L177.2 172.9L178 172.4L178.3 171.4L179 170.7L179.6 169.9L180.3 169.2L180.9 168.4L181.7 167.8L182 166.8L182.7 166.1L183.4 165.4L183.7 164.4L184 163.5L184.9 162.9L185.4 162.1L185.7 161.1L186.1 160.3L185.6 159.5L185.8 158.4L185.4 157.4Z" fill="#ED0000"/>
<path d="M1.39961 114.799L0.699609 113.699L0.599609 114.399L0.699609 115.199L0.799609 116.099H1.59961L2.39961 116.199L1.89961 115.499L1.39961 114.799Z" fill="#ED0000"/>
<path d="M13.9 156.499L13.4 155.599L12.9 154.699L12.4 153.899L12 152.999L11.5 152.099L11 151.199L11.5 152.099L11.9 152.999L12.3 153.899L12.7 154.799L13.1 155.599L13.6 156.499L13.9 156.599V156.499Z" fill="#ED0000"/>
<path d="M7.50078 142.201L6.80078 141.801L7.20078 142.601L7.50078 143.501L7.60078 143.701L7.70078 144.001L8.00078 143.701L7.80078 143.001L7.50078 142.201Z" fill="#ED0000"/>
<path d="M6.39961 138.8L5.59961 138.4L5.89961 139.4L6.29961 140.4L6.69961 141.4L7.39961 142L7.09961 140.9L6.79961 139.9L6.39961 138.8Z" fill="#ED0000"/>
<path d="M5.20039 134.301L4.60039 133.501L3.90039 132.801L4.10039 133.701L4.40039 134.601L4.60039 135.401L4.90039 136.201L5.20039 137.101L5.40039 137.901L6.30039 138.501L6.10039 137.601L5.90039 136.801L5.70039 136.001L5.50039 135.101L5.20039 134.301Z" fill="#ED0000"/>
<path d="M22.3008 170L22.9008 170.7L23.5008 171.4L24.1008 172.1L24.9008 171.9L24.2008 171.1L23.5008 170.2L22.8008 169.4L22.3008 170Z" fill="#ED0000"/>
<path d="M2.40039 111.399L1.40039 110.999L0.400391 110.699V111.499L1.50039 111.899L2.40039 112.599V111.399Z" fill="#ED0000"/>
<path d="M72.0008 202.3L71.9008 202L70.9008 201.8L69.8008 201.5L70.5008 201.9L71.2008 202.3H72.0008Z" fill="#ED0000"/>
<path d="M1.90039 112.699V113.699V114.699L2.60039 114.899V114.199V113.399L1.90039 112.699Z" fill="#ED0000"/>
<path d="M52.9004 195.1L53.6004 195.5L54.3004 195.9L55.0004 196.3V196.1L53.9004 195.6L52.9004 195.1Z" fill="#ED0000"/>
<path d="M2.30078 125L2.50078 125.7L3.00078 125.5L2.90078 125H2.30078Z" fill="#ED0000"/>
<path d="M145.801 198.5L146.601 198.2L147.301 197.7L148.001 197.3L147.101 197L146.401 197.7L145.801 198.5Z" fill="#ED0000"/>
<path d="M151.199 195.5L151.799 195.2L151.499 194L151.299 194.7L151.199 195.5Z" fill="#ED0000"/>
<path d="M14.3008 157.199V157.699L14.8008 158.799L15.4008 159.799L16.2008 160.199L15.7008 159.399L15.2008 158.699L14.8008 157.999L14.3008 157.199Z" fill="#ED0000"/>
<path d="M13.8992 156.799L13.6992 156.699L13.8992 156.999V156.799Z" fill="#ED0000"/>
<path d="M2.1 110.001V109.201L2.3 108.501V107.501L2.1 106.601V105.601V104.701L2 103.701V102.801L2.1 102.001L2.2 101.101L2.3 100.301L2.4 99.5008L2.2 98.6008L1.1 98.2008L0 97.8008V98.8008L0.1 99.8008L0.2 100.701L0.3 101.701V102.701V103.701V104.701V105.701V106.801V107.801V108.801L0.4 109.801L1.3 110.201L2.3 110.601L2.1 110.001Z" fill="#ED0000"/>
<path d="M34.2008 182.3L34.3008 181.5L33.6008 180.8L32.9008 180.3L32.2008 179.6L31.5008 179L30.9008 178.2L30.3008 177.6L29.6008 176.9L28.9008 176.3L28.3008 175.6L27.6008 175L27.1008 174.2L26.4008 173.6L25.6008 173.3L24.8008 173L25.4008 173.8L26.1008 174.4L26.7008 175.2L27.3008 175.9L28.0008 176.6L28.6008 177.2L29.4008 177.9L30.0008 178.6L30.7008 179.2L31.3008 179.9L32.1008 180.5L32.7008 181.3L33.4008 181.9L34.2008 182.4L34.9008 183L35.6008 183.7L36.3008 184.3L37.0008 184.9L37.8008 185.5L38.5008 186.1L39.3008 186.6L40.0008 187.2L40.8008 187.7L40.9008 187.2L41.0008 187.9L41.8008 188.4L42.6008 188.9L43.3008 189.5L44.1008 190L44.8008 190.6L45.6008 191L46.4008 191.5L47.2008 191.9L48.0008 192.4L48.8008 192.9L49.7008 193.3L50.5008 193.8L51.2008 194.3L52.1008 194.7L52.9008 195.1L52.1008 194.6L51.3008 194.2L50.5008 193.6L49.7008 193.2L48.9008 192.7L48.1008 192.2L47.4008 191.6L46.6008 191.2L45.8008 190.7L45.1008 190.1L44.3008 189.5L43.5008 189.1L42.8008 188.5L42.0008 187.9L41.3008 187.4L40.5008 186.8L39.8008 186.2L39.1008 185.6L38.4008 185L37.7008 184.4L37.0008 183.8L36.3008 183.2L35.5008 182.7L34.8008 182L34.2008 182.3Z" fill="#ED0000"/>
<path d="M20.7008 166.899L21.0008 167.099L20.4008 166.299L19.8008 165.499L19.2008 164.699L18.6008 163.899L18.1008 162.999L17.5008 162.199L17.3008 162.899V162.799L17.8008 163.699L18.4008 164.499L18.9008 165.299L19.5008 166.099L20.0008 166.899H20.7008Z" fill="#ED0000"/>
<path d="M66.6996 200.601L65.7996 200.301L64.8996 200.001L63.8996 199.701L62.9996 199.401L62.0996 199.101L61.1996 198.701L60.2996 198.401L59.3996 198.001L58.4996 197.701L57.5996 197.301L57.8996 197.801L58.7996 198.301L59.6996 198.701L60.5996 199.201L61.4996 199.601L61.3996 199.401L61.9996 199.801L62.7996 200.201L63.5996 200.601L64.3996 201.001L65.2996 201.301L66.0996 201.601L66.6996 200.601Z" fill="#ED0000"/>
<path d="M83.8008 6.19961L84.6008 6.09961L85.5008 5.99961L86.3008 5.89961L87.2008 5.79961L86.7008 4.99961L85.9008 4.59961L85.1008 4.99961L84.4008 5.49961L83.8008 6.19961Z" fill="#ED0000"/>
<path d="M88.8 4.30078L87.8 4.70078L87.5 5.80078L88.7 5.60078L88.8 4.30078Z" fill="#ED0000"/>
<path d="M191.501 148L191.401 147.4L191.301 147.6L191.501 148Z" fill="#ED0000"/>
<path d="M142.6 12.9996L142.3 12.0996L142 11.0996L141.8 10.0996L141.1 10.9996V12.1996L141.5 12.4996L140.7 12.1996L139.9 11.7996L139.1 12.1996L140 12.5996L140.9 12.9996L141.8 13.3996L142.6 13.7996V12.9996Z" fill="#ED0000"/>
<path d="M18.2004 40.9992L18.1004 40.6992L17.9004 40.9992H18.2004Z" fill="#ED0000"/>
<path d="M196.6 135.301L196.3 136.001L196 136.701L196.5 136.101L196.6 135.301Z" fill="#ED0000"/>
<path d="M2.8 80.5L3.8 81.2L4.5 82.2L4.6 81.2L4.9 80.3L5.1 79.4L5.3 78.4L5.5 77.5L5.6 76.5L5.9 75.6L6.1 74.7L6.4 73.8L6.7 72.9L6.9 72L7.3 71.1L7.5 70.2L7.8 69.2L8.1 68.3L8.4 67.5L8.9 66.6L9.2 65.7L9.5 64.8L9.8 63.9L10.3 63.1L10.5 62.1L11 61.3L11.4 60.5L11.8 59.6L12.2 58.7L12.6 57.9L13.1 57L13.5 56.2L13.9 55.3L13.5 54.3L14 53.5L14.5 54.2L15.1 53.4L15.6 52.5L14.9 51.9L14.2 51.4L13.4 51.3L13.1 50.3L13.3 49.3L13.2 48.2L13.5 49.2L14.3 49.5L14.8 48.7L15.3 47.9H16.1L16.5 48.8L16 49.9L16.3 51.2L16.8 50.4L17.3 49.7L17.8 48.9L18.1 48.1L18.8 47.4L19.1 46.6L19.7 45.9L20.3 45.2L19.9 44.3L19.4 43.4L18.9 42.7L18.3 41.9L17.8 41L17.2 41.9L16.6 42.7L16.1 43.5L15.5 44.3L14.9 45.1L14.5 46L13.8 46.7L13.3 47.5L12.8 48.4L12.5 49.3L11.9 50.1L11.4 50.9L12.1 51.2L11.4 51L10.9 51.8L10.5 52.7L10 53.5L9.6 54.4L9.1 55.2L8.7 56L8.3 56.9L7.9 57.8L7.6 58.7L7.1 59.6L6.7 60.4L6.3 61.3L6.1 62.2L5.6 63.1L5.3 64L5.1 64.9L4.8 65.8L4.6 66.8L4.1 67.6L3.9 68.5L3.7 69.5L3.2 70.4L3 71.3L2.8 72.2L2.6 73.2L2.4 74.1L2.2 75L1.9 75.9L1.7 76.9L1.6 77.8L1.3 78.8V79.7L1 80.7L1.9 81.3L2.8 81.8L3.2 81.4L2.5 80.6L1.9 80.1L2.8 80.5Z" fill="#ED0000"/>
<path d="M0.900781 85.9996L0.400781 85.5996L0.300781 86.5996V87.5996L1.00078 86.9996L0.900781 85.9996Z" fill="#ED0000"/>
<path d="M185.5 157.299L185.9 157.799L186.1 157.099L186.2 156.399V156.199L185.5 157.299Z" fill="#ED0000"/>
<path d="M2.59961 85.0996L3.19961 85.5996L3.79961 86.0996V85.9996L3.19961 85.5996L2.59961 85.0996Z" fill="#ED0000"/>
<path d="M0.5 93.9996L0 93.5996V94.0996L0.5 93.9996Z" fill="#ED0000"/>
<path d="M2.89961 88.3008L2.39961 89.2008L1.79961 90.1008L1.19961 91.0008L0.899609 91.9008L0.599609 92.7008L1.29961 93.5008L1.99961 94.3008L2.69961 95.2008L2.89961 94.4008L2.99961 93.4008L3.09961 92.4008L3.19961 91.3008L3.29961 90.3008L3.39961 89.3008L3.49961 88.3008H2.89961Z" fill="#ED0000"/>
<path d="M63.2992 7.39961L63.0992 8.19961L62.6992 8.59961L62.8992 9.39961L63.1992 10.1996L63.8992 10.6996L64.3992 10.0996L63.9992 9.19961L64.4992 9.89961L65.0992 10.6996L64.9992 9.79961L64.7992 8.99961L64.5992 8.09961L64.8992 7.39961L65.0992 6.59961L64.3992 6.89961L63.6992 7.09961L63.7992 7.19961L63.2992 7.39961Z" fill="#ED0000"/>
<path d="M63.2992 7.30078L63.1992 7.40078L63.2992 7.30078Z" fill="#ED0000"/>
<path d="M90.0008 5.6L90.9008 5.5L91.8008 5.4H92.8008L93.7008 5.3H94.6008H95.5008H96.4008H97.4008H98.3008L99.2008 5.4H100.101H101.101L102.001 5.5H103.001L104.001 5.4L103.801 4.5L103.501 3.6L103.101 2.7L102.801 1.8L102.501 0.9L102.201 0H101.601L101.801 1.1L101.601 2.2L101.301 1.3L101.101 0.3L100.901 1.3L100.601 2.2L100.201 3.1L99.5008 3L99.0008 2.2V1.1L99.1008 0.1L98.5008 0L97.5008 0.1L96.5008 0.2L95.6008 0.3H94.6008L93.6008 0.4H92.6008L91.6008 0.6L90.7008 0.7L89.7008 0.8L88.7008 0.9L87.7008 1.1L86.8008 1.2L87.3008 2L88.0008 2.6L88.6008 3.2L89.2008 3.9L89.6008 4.7L90.0008 5.6Z" fill="#ED0000"/>
<path d="M20.5004 44.9992L21.0004 44.0992L21.6004 43.1992L22.4004 42.4992L22.3004 41.5992V40.5992L22.2004 39.6992L22.1004 38.7992L22.3004 39.6992L22.4004 40.7992L22.7004 41.8992L23.2004 41.0992L23.9004 40.3992L24.4004 39.5992L25.1004 38.9992L25.7004 38.1992L26.2004 37.3992L26.9004 36.7992L26.6004 35.8992L27.0004 36.6992L27.6004 35.8992L28.3004 35.1992L29.0004 34.4992L29.7004 33.8992L30.3004 33.0992L31.0004 32.4992L31.6004 31.6992L32.4004 31.0992L33.1004 30.4992L33.8004 29.8992L34.5004 29.1992L35.2004 28.4992L36.0004 27.9992L36.6004 27.2992L37.4004 26.6992L38.1004 26.0992L38.8004 25.4992L39.7004 24.9992L40.5004 24.3992L41.1004 23.6992L41.9004 23.0992L42.8004 22.6992L43.6004 22.1992L44.2004 21.4992L45.0004 20.9992L45.9004 20.5992L46.7004 19.9992L47.5004 19.4992L48.3004 18.9992L49.1004 18.3992L50.0004 18.0992L50.8004 17.4992L51.6004 16.9992L52.4004 16.4992L53.3004 16.0992L54.2004 15.6992L54.9004 15.0992L55.9004 14.8992L56.7004 14.4992L57.6004 13.9992L58.4004 13.5992L59.3004 13.2992L60.2004 12.7992L61.0004 12.3992L62.0004 12.1992L62.9004 11.6992L61.8004 11.0992L60.7004 10.7992L60.8004 11.5992L60.5004 12.3992L60.3004 11.5992L60.0004 10.7992L59.4004 10.0992L58.5004 9.99922L57.7004 9.69922L56.9004 10.0992L56.0004 10.2992L55.2004 10.7992L54.4004 11.2992L53.4004 11.5992L54.1004 11.9992L53.0004 12.1992L53.1004 11.7992L52.2004 12.1992L51.4004 12.6992L50.5004 12.9992L49.7004 13.4992L49.0004 14.0992L48.1004 14.4992L47.3004 14.9992L46.4004 15.3992L45.6004 15.7992L44.8004 16.2992L44.1004 16.9992L43.3004 17.4992L42.5004 17.9992L41.7004 18.3992L40.9004 18.9992L40.2004 19.5992L39.3004 19.9992L38.5004 20.4992L37.9004 21.2992L37.2004 21.8992L36.3004 22.2992L35.6004 22.8992L34.8004 23.3992L34.2004 24.0992L33.4004 24.6992L32.7004 25.2992L31.9004 25.7992L31.3004 26.4992L30.5004 27.0992L29.9004 27.6992L29.2004 28.3992L28.5004 28.9992L28.7004 29.7992L28.8004 30.4992L28.2004 29.3992L27.6004 29.8992L27.0004 30.6992L26.3004 31.2992L25.6004 31.9992L24.9004 32.5992L24.3004 33.2992L23.6004 33.9992L23.0004 34.5992L22.3004 35.3992L21.9004 36.1992L21.3004 36.8992L20.6004 37.5992L20.1004 38.3992L19.5004 39.0992L18.9004 39.7992L19.3004 40.4992L19.9004 41.0992L20.4004 41.7992L20.8004 42.5992L20.9004 43.4992L20.7004 44.1992L20.5004 44.9992Z" fill="#ED0000"/>
<path d="M81.7004 6.49961V5.59961V4.59961L81.2004 4.69961L81.3004 3.79961L81.4004 2.99961V2.09961L80.7004 2.29961L80.0004 2.39961L80.4004 3.39961L80.8004 4.39961L80.3004 4.99961L79.5004 5.19961L79.3004 4.29961V3.39961L79.4004 2.59961L78.4004 2.79961L77.4004 2.99961L77.8004 3.99961L78.0004 4.99961L78.2004 6.09961L78.3004 7.09961L79.2004 6.99961L80.0004 6.79961L80.9004 6.69961L81.7004 6.49961Z" fill="#ED0000"/>
<path d="M73.1 4.09961L72 4.39961L72.7 4.89961L73.1 4.09961Z" fill="#ED0000"/>
<path d="M113.199 11.5992L113.799 12.2992L114.399 13.0992L115.199 13.6992L115.899 13.2992L115.599 12.3992L116.699 12.8992V12.2992L117.199 11.8992L116.299 11.6992L115.299 11.4992L114.399 11.3992L113.499 11.1992L113.199 11.5992Z" fill="#ED0000"/>
<path d="M122.6 15.2996L123.6 15.5996L124.5 15.8996L125.5 16.0996L126.4 16.3996L127.4 16.5996L128.3 16.9996L129.3 17.2996L130.2 17.5996L131.2 17.8996L132.1 18.2996L133 18.5996L132.8 18.1996L133.2 17.4996L133.5 16.7996L132.7 16.4996L131.9 16.1996L132 17.0996V17.8996L131.6 17.1996L131.7 16.0996L130.8 15.7996L129.9 15.3996L129 15.0996L128 14.7996L127.1 14.4996L126.2 14.1996L125.2 13.8996L124.3 13.6996L123.4 13.3996L122.4 13.0996L122.1 13.7996L122.3 14.5996L122.6 15.2996Z" fill="#ED0000"/>
<path d="M119.6 12.3996L118.8 12.1996L117.9 12.0996L118.7 12.6996L119.6 13.3996V12.3996Z" fill="#ED0000"/>
<path d="M135.801 17.7008L134.801 17.3008L135.101 18.4008L135.401 19.4008L136.201 19.8008L137.101 20.2008L138.001 20.6008L138.801 21.0008L139.701 21.4008L140.601 21.7008L141.501 22.2008L142.301 22.5008L143.201 23.0008L144.001 23.5008L144.801 24.0008L145.701 24.3008L146.501 24.9008L147.401 25.3008L148.201 25.7008L149.001 26.2008L149.801 26.7008L150.701 27.1008L151.501 27.7008L152.301 28.2008L153.101 28.7008L153.901 29.2008L154.601 29.8008L155.401 30.4008L156.201 30.9008L157.001 31.5008L157.701 32.1008L158.501 32.6008L159.201 33.3008L160.001 33.8008L160.701 34.4008L161.401 35.0008L162.201 35.6008L162.901 36.3008L163.701 36.8008L164.201 37.6008L165.001 38.3008L165.601 38.9008L166.501 39.4008L167.101 40.2008L167.701 40.9008L168.401 41.5008L169.101 42.2008L169.701 42.9008L170.301 43.7008L170.901 44.3008L171.001 43.2008L170.301 42.4008L170.101 42.6008L170.301 42.3008L169.701 41.6008L168.901 41.0008L168.401 40.2008L167.701 39.6008L167.001 39.0008L166.401 38.2008L165.601 37.6008L164.901 37.0008L164.201 36.4008L163.601 35.6008L162.901 35.0008L162.201 34.4008L161.501 33.8008L160.701 33.1008L160.001 32.6008L159.201 32.1008L158.501 31.4008L157.801 30.8008L157.701 31.7008V30.8008L157.001 30.1008L156.201 29.6008L155.501 29.0008L154.701 28.5008L154.001 27.9008L153.101 27.4008L152.301 27.0008L151.601 26.4008L150.801 25.8008L150.101 25.3008L149.201 24.9008L148.501 24.3008L147.701 23.8008L146.801 23.4008L146.001 22.9008L145.301 22.3008L144.401 22.0008L143.501 21.6008L142.801 21.0008L141.901 20.7008L141.001 20.3008L140.201 19.9008L139.401 19.5008L138.601 18.9008L137.701 18.5008L136.801 18.2008L136.001 17.8008V17.9008L135.801 17.7008Z" fill="#ED0000"/>
<path d="M8.79961 88.5996L9.19961 87.7996L9.29961 86.7996L9.39961 85.8996L9.69961 84.9996V83.9996L9.89961 83.0996L10.0996 82.1996L10.6996 81.3996V80.3996L11.1996 79.4996L11.2996 78.4996L11.7996 77.6996V76.6996L12.0996 75.7996L12.4996 74.8996L12.7996 73.9996L13.1996 73.1996L13.2996 72.1996L13.9996 71.3996L14.1996 70.4996L14.6996 69.6996L14.8996 68.7996L15.3996 67.9996L15.5996 67.0996L16.0996 66.2996L16.4996 65.3996L17.1996 64.6996L17.4996 63.7996L17.6996 62.7996L18.3996 62.0996L18.5996 61.0996L19.1996 60.2996L19.6996 59.4996L20.2996 58.6996L20.7996 57.8996L21.1996 56.9996L21.7996 56.2996L21.9996 55.2996L22.6996 54.5996L22.9996 53.5996L23.7996 52.9996L24.1996 52.0996L24.8996 51.4996L25.0996 50.4996L25.8996 49.8996L26.4996 49.1996L26.7996 48.2996L26.5996 47.1996L26.7996 46.0996L27.4996 45.6996L28.2996 45.3996L28.9996 44.9996V45.6996L29.5996 44.9996L30.1996 44.2996L30.8996 43.5996L31.2996 42.6996L31.9996 41.9996L32.8996 41.4996L33.5996 40.7996L34.2996 40.0996L34.7996 39.2996L35.4996 38.5996L36.2996 38.0996L36.9996 37.4996L37.6996 36.7996L38.2996 35.9996L38.9996 35.3996L39.6996 34.7996L40.1996 33.8996L40.9996 33.3996L41.7996 32.7996L42.4996 32.1996L43.3996 31.6996L43.4996 30.7996V29.8996L44.0996 30.8996L44.4996 30.3996L45.1996 29.8996L45.9996 29.4996L46.5996 28.7996L47.1996 28.1996L47.8996 27.7996L47.4996 27.2996L47.2996 26.5996L48.2996 26.2996L48.6996 27.3996L49.6996 26.8996L50.4996 26.3996L51.2996 25.8996L51.9996 25.2996L52.6996 24.5996L53.5996 24.2996L54.3996 23.6996L55.2996 23.3996L56.0996 22.8996L56.8996 22.2996L57.6996 21.6996L58.5996 21.3996L59.3996 20.8996L60.1996 20.3996L61.0996 19.9996L61.9996 19.5996L62.8996 19.2996L63.7996 18.9996L64.4996 18.2996L65.3996 18.0996L66.2996 17.7996L66.9996 17.2996L66.7996 16.3996L66.1996 15.5996L65.5996 14.9996L64.6996 15.2996L64.7996 14.5996L63.9996 14.8996L62.9996 14.9996L62.1996 15.4996L61.2996 15.6996L60.4996 16.2996L59.4996 16.4996L58.6996 17.0996L57.6996 17.1996L56.7996 17.5996L55.9996 18.1996L55.0996 18.4996L54.2996 19.0996L53.2996 19.2996L52.5996 19.9996L51.6996 20.2996L50.9996 20.8996L50.0996 21.2996L49.1996 21.6996L48.3996 22.1996L47.5996 22.7996L46.6996 23.1996L45.9996 23.5996L45.3996 24.3996L44.5996 24.9996L43.6996 25.2996L42.8996 25.7996L42.2996 26.5996L41.3996 26.9996L40.6996 27.5996L39.9996 28.3996L38.9996 28.6996L38.4996 29.4996L37.5996 29.8996L36.9996 30.6996L36.2996 31.2996L35.4996 31.8996L34.7996 32.4996L34.0996 33.0996L33.3996 33.6996L32.9996 34.5996L32.2996 35.1996L31.4996 35.6996L30.9996 36.5996L30.2996 37.1996L29.4996 37.7996L28.9996 38.5996L28.3996 39.3996L27.5996 39.9996L26.9996 40.8996L26.4996 41.6996L25.6996 42.2996L25.1996 43.0996L24.4996 43.7996L23.9996 44.5996L23.4996 45.3996L22.8996 46.0996L22.4996 46.9996L21.5996 47.5996L21.2996 48.5996L20.7996 49.3996L20.0996 50.0996L19.5996 50.8996L20.5996 51.7996L20.2996 52.7996L19.9996 53.7996L19.3996 54.5996L18.3996 54.7996L17.5996 54.3996L17.1996 54.9996L16.6996 55.7996L16.3996 56.6996L15.6996 57.3996L15.1996 58.1996L14.7996 58.9996L14.2996 59.9996L13.7996 60.7996L13.3996 61.5996L12.9996 62.4996L12.6996 63.3996L12.2996 64.2996L11.9996 65.1996L11.5996 65.9996L11.1996 66.8996L10.9996 67.8996L10.2996 68.5996L10.0996 69.4996L9.79961 70.3996L9.29961 71.1996L9.19961 72.1996L8.79961 73.0996L8.59961 73.9996L7.99961 74.7996L7.89961 75.7996L7.59961 76.6996L7.39961 77.5996L6.99961 78.4996L6.89961 79.4996L6.39961 80.2996L6.19961 81.1996L6.09961 82.1996L5.49961 82.9996V83.9996L5.09961 84.8996L5.49961 85.6996L6.19961 86.2996L6.99961 86.8996L7.49961 87.6996L8.19961 88.2996L8.79961 88.5996ZM20.9996 50.3996L21.0996 51.6996L21.4996 52.7996L21.0996 52.1996L20.6996 51.4996L20.9996 50.3996ZM11.7996 76.5996L10.9996 76.4996L10.4996 75.8996L9.99961 75.0996L9.49961 74.3996L10.3996 74.1996L11.2996 74.5996L11.5996 75.4996L11.7996 76.5996Z" fill="#ED0000"/>
<path d="M98.5004 12.1008H99.3004H100.1L100 12.0008L99.7004 10.8008H100.4L101.1 10.9008L100.9 12.2008L101.9 12.3008L102.8 12.4008L103.8 12.3008L104.7 12.4008L105.7 12.5008L105.9 11.4008L106 10.3008H105.1L104.1 10.2008H103.2L102.2 10.1008H101.3H100.3H99.4004L98.4004 10.0008L97.5004 9.90078L96.6004 10.0008L95.7004 9.90078H94.7004H93.8004H92.9004L91.9004 9.80078L91.0004 9.90078H90.1004L89.2004 10.0008H88.2004L87.3004 10.2008H86.4004H85.5004L84.6004 10.3008H83.6004L82.7004 10.5008L81.8004 10.6008L80.9004 10.7008L79.9004 10.8008L80.1004 11.8008L80.4004 12.7008L80.5004 13.6008L81.4004 13.4008L82.4004 13.2008L83.3004 13.0008L84.3004 12.9008L85.2004 12.7008L86.1004 12.6008H87.1004L88.0004 12.4008L89.0004 12.3008L89.9004 12.2008H90.9004H91.8004L92.8004 12.0008L93.7004 12.1008L94.7004 12.0008L95.6004 12.1008L96.6004 12.0008H97.5004L98.5004 12.1008Z" fill="#ED0000"/>
<path d="M168.6 169.2L167.9 169.6V170.6V171.6L168.6 171L169.3 170.3L170 169.6L169.3 169.1L168.6 169.2Z" fill="#ED0000"/>
<path d="M4.70078 86.8008L4.60078 86.9008L5.30078 87.4008L6.00078 88.0008L5.20078 88.1008L4.40078 88.2008L4.20078 89.1008L4.00078 90.0008L3.80078 91.0008L3.60078 91.9008L3.40078 92.8008L3.30078 93.7008L3.60078 94.5008L4.00078 95.3008L4.50078 96.1008L4.80078 97.0008L5.20078 97.7008L5.40078 98.7008L5.60078 99.6008L6.00078 100.401L6.60078 101.101L7.50078 101.401V100.401V99.5008L7.60078 98.5008L7.70078 97.5008L7.80078 96.6008L7.90078 95.6008L8.00078 94.6008V93.7008L8.20078 92.7008L8.40078 91.7008L8.50078 90.8008L8.60078 89.8008L7.80078 89.3008L7.10078 88.6008L6.30078 88.0008L5.50078 87.3008L4.70078 86.8008Z" fill="#ED0000"/>
<path d="M187.5 142L187.7 143.1L187.8 144.2L188.2 143.2L188.7 142.3L189.1 141.3L189.5 140.3L189.1 139.5L188.5 139.9L188.4 140.8L188.3 141.8L188 142.7L187.5 142Z" fill="#ED0000"/>
<path d="M184.6 145.9L184.7 147.1L184.9 148.2L184.6 148.4L184.4 147.6V146.7L184.5 145.8L184.7 144.9L185.1 144.2L185.2 145.2L185.4 146.2L186 145.8L186.5 144.9L187 144.1L187.5 144.6L187.7 144.5L187.5 143.6L187.3 142.7L187.2 141.8L186.9 140.9L186.7 140L186 139.7L185.6 140.5L185.8 141.4L186 142.1V142.8L185.8 142.1L185.7 141.4L184.6 140.5V141.6L184.4 142.6H183.8L183.2 142.1L182.9 142L182.6 141.5L182.9 142L183.1 142.2L183.7 141.9V141.1L183.6 140.1L183.3 139.1L183.1 138.1L182.6 138.9L182.3 139.8L181.9 140.7L181.8 141.6L181.6 142.4L181.4 143.3L181.1 144.1L181 145L181.7 145.4L182.3 145.6L182.4 146.6L181.5 146L181.6 146.8V147.6H180.8L180.1 147.1L180 148.2V149.3L181.4 149.6L180.7 150L180.1 150.4L180 149.3L179.3 148.9L178.7 148.3L178.1 147.9L177.7 148.7L177.1 149.5L176.7 150.4L176.2 151.2L175.6 152L175.1 152.8L174.7 153.7L174.2 154.5L173.6 155.3L173.1 156.2L172.5 156.9L172 157.7L171.4 158.5L170.8 159.3L170.3 160.1L169.7 160.8L169.1 161.5L169.4 162.4L170.1 163.1L170.9 163.5L170.4 164.5L170.9 165.5L171.5 166.1V165L171.6 163.8L172.3 164.3L172.7 165.1L173.1 165.9L173.7 165.2L174.3 164.5L174.8 163.8L175.4 163.1L176 162.4L176.5 161.7L175.5 162L175.4 161.1L175.5 160.2V159.3L175.4 158.4L175.5 157.5V156.6L175.8 155.7L176.4 155.2L176.7 156.1L176.8 157V157.9L176.7 158.8V159.7L176.6 160.6L176.9 161.5L177.5 160.7L178 159.9L178.5 159.1L179.1 158.4L179.7 157.7L180.2 156.9L180.7 156.1L181.1 155.3L181.7 154.6L182.3 153.8L182.7 152.9L183.3 152.2L183.6 151.3L183.5 150.3L183.6 149.2L183.5 148.2H183.6V149.1L183.8 150L183.9 150.9L184.3 150.2L184.8 149.5L185.1 148.7L185 147.9L184.9 147L184.8 146.1L184.6 145.9ZM173.6 162.5L173.3 161.7L173.1 160.9L173 160L172.7 159.2L173.8 159.8L173.5 160.6L173.6 161.6V162.5Z" fill="#ED0000"/>
<path d="M43.5992 173.101L42.8992 172.501L42.1992 171.801L42.7992 172.501L43.5992 173.101Z" fill="#ED0000"/>
<path d="M7.40039 104.5V105.4V106.3L7.70039 107.2L8.10039 108L8.00039 107L7.80039 106L7.70039 105.1L7.40039 104.5Z" fill="#ED0000"/>
<path d="M24.5996 151.001L24.4996 150.701L23.9996 150.001L23.5996 149.301V150.401L23.6996 151.401L23.8996 152.301L23.9996 153.401V154.401L24.5996 154.701L24.7996 153.801L24.9996 152.901L25.2996 152.001L24.5996 150.901V151.001Z" fill="#ED0000"/>
<path d="M4.09961 108.5L3.99961 109.5L4.69961 108.7L5.49961 108.1L6.09961 107.3L6.29961 106.3V105.3L6.19961 104.3L5.89961 103.4L5.29961 102.8H4.29961L3.69961 102.1L3.49961 101.2V101.9L3.19961 101.2L2.79961 100.5L2.89961 101.6V102.7L2.79961 103.6L2.69961 104.5V105.4V106.3L2.59961 107.2V108.1L3.49961 107.8L4.09961 108.5Z" fill="#ED0000"/>
<path d="M171.199 44.6004L171.899 45.4004L172.599 46.2004L172.299 45.4004L172.099 44.6004L171.599 43.9004L171.199 44.6004Z" fill="#ED0000"/>
<path d="M192.6 100.5L192.2 101.5V102.5L192.1 103.5L192 104.5L192.1 105.5L191.9 106.5V107.5L191.6 108.5L192.4 108.9L193.1 109.4L193 110.3L192.7 111L193.5 110.7L194.2 111L194.3 112L193.3 112.2L192.7 112.7L193.5 113.4L194.2 114.1L195.2 114.3L196 113.9L196.1 114.7L196.2 115.7L196.5 116.7L196.7 115.6L196.9 114.5L196.7 113.4L196.8 112.3L197.1 113.1V112.1V111.2L197.4 110.3V109.3L197.5 108.4L197.6 107.5L197.5 106.5L197.9 105.6V104.6L197.8 103.6V102.7L198 101.8L197.9 100.9L198 101L197.3 102.3L197.9 101.1V100.7L197.8 100.5L197.7 99.5996V98.5996L197.6 97.5996L197.5 96.5996L197.3 95.6996L197 94.7996L196.9 93.7996L196.4 92.8996V91.8996L196 90.9996L195.8 90.0996L195.5 89.1996L195.4 88.1996L195.2 87.2996L194.8 86.3996V85.3996L194.5 84.4996L194.3 83.5996L193.8 82.7996L193.5 81.8996L193 80.9996L192.7 80.0996L192.5 79.0996L192 78.1996L191.8 77.1996L191.6 76.2996L191 75.4996L190.9 74.4996L190.5 73.5996L190 72.7996L189.6 71.8996L189.2 70.9996L188.5 70.2996L188.4 69.2996L187.8 68.4996L187.5 67.5996L187.1 66.6996L186.5 65.8996L186.1 64.9996L185.7 64.0996L185.1 63.3996L184.8 62.4996L184.1 61.7996L183.7 60.8996L183.1 60.0996L182.8 59.0996L182.2 58.2996V58.8996L182 57.9996L181.5 57.2996L181 56.5996L180.5 55.8996L179.9 55.3996L179.5 54.7996L179.3 53.8996L178.8 53.1996L178 52.6996L177.5 51.8996L177.1 50.9996L176.3 50.4996L175.9 49.6996L175.4 48.9996L174.9 48.1996L174.3 47.4996L173.6 46.8996L173 46.0996L172.6 47.0996L173.2 47.8996L173.8 48.5996L174.5 49.2996L174.9 50.1996L175.5 50.8996L176 51.6996L176.8 52.2996L177.3 53.0996L177.6 53.9996L178.2 54.7996L178.7 55.5996L179.2 56.3996L179.9 57.0996L180.2 57.9996L180.7 58.7996L181.1 59.5996L181.8 60.2996L182.2 61.0996L182.8 61.8996L183 62.8996L183.6 63.6996L183.9 64.5996L184.4 65.3996L184.8 66.2996L185 67.1996L186 67.9996L186.3 68.8996L186.8 69.6996V70.6996L187.5 71.4996L187.8 72.3996L188 73.2996L188.1 74.2996L188.4 75.1996L188.8 76.0996L188.9 77.0996L189.4 77.8996L189.6 78.7996V79.7996L189.9 80.6996L190.2 81.5996L190.4 82.4996L190.7 83.3996L191 84.2996L190.8 85.2996L191.3 86.1996L191.6 87.0996L191.7 87.9996V88.9996L191.9 89.8996L191.8 90.8996L191.9 91.7996L192.2 92.6996V93.6996L192.1 94.6996L192.5 95.5996L192.3 96.5996L192.5 97.4996L192.3 98.4996V99.4996L192.6 100.5ZM188.6 71.3996L189 71.9996L188.6 71.3996L188.4 72.3996V73.3996L188.2 74.2996L187.9 73.3996V72.2996L188.6 71.3996Z" fill="#ED0000"/>
<path d="M195.801 117.6V118.4L196.001 119.1L196.201 118.1L196.401 117.1L196.001 116.9L195.801 117.6Z" fill="#ED0000"/>
<path d="M194.8 120.399L194.9 121.199L195.1 121.999L194.7 121.399L194.3 122.299L194.2 123.199L194.3 124.199L194.6 124.999L193.5 125.199L193.6 126.299L193.9 127.399L193.2 126.499L192.5 125.499L192.2 126.499L192.3 127.599L192.2 128.599L193.1 128.499L192.8 129.499L192.5 130.599L191.6 130.799L190.7 130.899L189.8 130.699L188.9 130.399L188.1 129.899L187.5 129.399L187.4 130.199V131.099L187.1 131.899L186.5 131.599L186 130.899L185.7 131.699L185.4 132.599L185.1 133.499L184.8 134.299L184.5 135.099L184.2 135.999L183.8 136.799L183.5 137.599L184.4 137.399L184.9 136.599L184.7 137.299L184.5 138.099L184.3 138.899L185.5 138.499L185.4 137.399L185.3 136.399L185.2 135.399L185 135.199L185.1 135.399L185.9 135.999L186.8 136.299L187.8 136.199L188.8 136.299L189.6 136.899L190.1 137.799L189.9 137.099L190.4 136.499L190.8 137.199L191.1 136.399L191.5 135.599L191.8 134.699L192.1 133.799L192.4 132.899L192.6 131.999L193 131.099L193.3 130.199L193.6 129.299L193.8 128.399L194.1 127.499L194.3 126.599L194.6 125.699L194.8 124.699L195 123.799L195.2 122.899L195.4 121.999L195.6 120.999L195.8 120.099L196 119.199L195.4 120.099L194.8 120.399Z" fill="#ED0000"/>
<path d="M68.5 17.0996L69.1 16.7996L69 16.3996H69.4L69.5 16.6996L70.1 16.4996V15.3996L70 14.2996L69.5 13.5996L69 14.2996L68.8 15.1996L68.7 16.0996L68.5 17.0996Z" fill="#ED0000"/>
<path d="M24.9008 159L24.8008 159.6L24.9008 159Z" fill="#ED0000"/>
<path d="M18.8008 152.2L19.0008 152.8L19.5008 153.5L20.3008 153.3L20.7008 152.4L21.2008 151.6L21.8008 150.9L21.9008 152L22.8008 152.4L22.9008 151.5V150.5L22.8008 149.5L22.7008 148.6L22.6008 147.6L22.1008 146.9L21.4008 147.1L20.5008 146.7L19.8008 146.2L20.1008 145.4L21.1008 145.3L20.9008 145.2V145.3L20.2008 144.9L19.4008 144.4L19.6008 144.1L19.0008 143.4L18.9008 144.1L19.4008 144.8L19.6008 145.6L18.9008 145.1L18.8008 146.1L18.9008 147.1L19.0008 148.2L18.5008 147.4L18.0008 146.6L17.5008 145.9L17.0008 145.1L16.4008 144.4L15.7008 144.1L15.4008 145L14.6008 145.2L13.8008 144.9L14.3008 145.7L14.7008 146.5L15.2008 147.2L15.6008 148L16.1008 148.8L16.6008 149.5L17.1008 150.3L17.6008 151.1H18.6008L19.3008 151.9L20.1008 152.5L19.3008 152.1L18.5008 151.7L17.7008 151.3L18.4008 152.2L19.0008 153.2V152.7L18.8008 152.2Z" fill="#ED0000"/>
<path d="M10.9004 129.301L11.5004 129.701L12.2004 129.801L12.0004 129.501L10.9004 129.301Z" fill="#ED0000"/>
<path d="M18.0996 140.9L18.8996 141.6L19.1996 141.5L18.9996 141.2L18.0996 140.9Z" fill="#ED0000"/>
<path d="M16.9992 140.4L16.6992 139.4V140.7L16.9992 140.4Z" fill="#ED0000"/>
<path d="M24 158.801V159.701L24.7 160.501L24.8 159.701L24 158.801Z" fill="#ED0000"/>
<path d="M26.7992 162.801L26.6992 162.901L27.1992 163.401V162.801H26.7992Z" fill="#ED0000"/>
<path d="M73.9 192.5L73.5 193.4L74.3 193.7L73.9 192.5Z" fill="#ED0000"/>
<path d="M35.3008 171.4L35.8008 171.9L35.3008 171.4Z" fill="#ED0000"/>
<path d="M4.10039 115.4L4.90039 115.8L5.70039 116.4L6.40039 116.9L7.00039 117.6L7.60039 118.3L7.50039 117.7L7.60039 117.5V117.3L7.50039 116.4L7.30039 115.6L7.10039 114.8L6.70039 114.1L5.80039 113.7L4.80039 113.8L3.80039 113.9L2.90039 113.5L3.00039 114.3L3.20039 115.1L4.10039 115.4Z" fill="#ED0000"/>
<path d="M191.501 108.5L191.301 109.6L191.701 109L191.501 108.5Z" fill="#ED0000"/>
<path d="M16.2004 135.1L15.9004 134.5L16.2004 135.1Z" fill="#ED0000"/>
<path d="M8.70039 122.899L8.00039 123.199L8.50039 123.799L8.90039 124.499L8.10039 123.899L8.00039 123.199L7.20039 122.699L6.30039 122.299L5.60039 121.599L4.40039 121.199L4.60039 122.199L4.90039 123.099L5.60039 123.399L6.20039 123.199L6.80039 123.899L7.30039 124.699L7.90039 125.499L8.50039 126.199L9.10039 126.599L9.60039 127.099L9.00039 126.699L8.50039 126.199L7.30039 126.399L7.50039 125.599L6.70039 124.999L5.90039 124.299L5.00039 123.699L5.10039 124.099L5.60039 124.799L6.00039 125.599L6.80039 126.499L6.30039 126.299L6.80039 127.099L7.10039 127.999L7.50039 128.899L7.90039 129.799L8.70039 129.099L8.50039 128.799L8.70039 129.099L10.0004 128.899L10.8004 128.599L11.6004 128.199L10.5004 127.499L11.4004 127.299L12.3004 127.099L11.6004 126.399L10.9004 125.599L11.6004 126.199L12.3004 126.699L13.1004 127.199L12.7004 126.299L12.4004 125.399L11.8004 124.799L11.0004 124.299L10.3004 123.799L9.50039 123.299L8.70039 122.899Z" fill="#ED0000"/>
<path d="M11.3008 123.699L12.2008 124.699L11.9008 123.699H11.3008Z" fill="#ED0000"/>
<path d="M16 137.4L16.5 138.2L17.3 137.8L17.4 137.9L17.1 137.2L16.7 136.4L16.4 135.6L16.2 136.5L16 137.4Z" fill="#ED0000"/>
<path d="M83.5004 195.3L83.4004 196.2L84.4004 196.4L84.3004 195.4V194.6L84.4004 194.5V194.6L84.3004 195.5L84.7004 196.3L86.2004 196.8L85.5004 196L86.1004 196.6L87.1004 196.8L88.1004 197.1L88.7004 196.2H89.7004L89.6004 197.4H90.3004L89.9004 196.6L90.5004 197.5L91.6004 197.4L92.5004 197.9L93.5004 198.1H94.5004L95.5004 198.2L96.5004 197.8L97.4004 198.2L98.4004 197.6L99.3004 198.2L100.3 198.3L101.3 197.8L102.3 197.9L103.3 198.1L104.2 197.6L105.2 198.1L106.1 197.8L107.1 198L108.1 198.1L109 197.9L109.9 197.6L110.9 197.8L110.8 197.1L110.9 198.1L112.1 197.6L113 197.3L113.9 197.2H114.9L115.9 197.4L116.8 196.8L117.7 196.5L118.6 196.3H119.6L120.6 196.6L121.5 196L122.4 195.8L123.4 196L124.3 195.7L125.2 195.2L126 194.6L127.1 195.1L127.9 194.5L128.8 194.3L129.6 193.7L130.6 193.8H131.6L132.5 193.6L133.3 193.1L134.2 192.8L135.1 192.6L135.8 191.7L136.9 192L137.6 191.3L138.5 191.1L139.3 190.6L140.1 190.1H141.1L141.9 189.6L142.8 189.3L143.5 188.6H144.5L145.1 187.7L145.9 187.2L147.1 187.4L147.7 186.6H148.8L149.6 186.1L150.3 185.4L151.2 185L151.9 184.3L152.7 183.8L153.7 183.7L154.4 183.1L155 182.3L155.9 181.9L156.6 181.2L157.6 181L158.2 180.2L159.2 180L159.7 179.1L160.7 178.8L161.3 178L162.3 177.7L162.9 176.9L163.6 176.3L164.5 175.8L165.1 175L165.7 174.3L166.3 173.5L167.2 172.9L166.9 172.4L167.8 172.6L167.3 171.5L167.6 170.6L167.1 169.7L166.6 168.8L166.2 169.8L166.3 170.8L166.1 171.6L165.6 172.4L165.5 171.9L165.7 172.6L165.4 173.4L165.3 172.4L164.8 171.6L164.4 170.7V169.8L163.7 169.4L163 169.8L162.5 170.5L161.8 171.1L160.9 171.5L160.1 172.1L159.7 173.1L158.7 173.4L158.4 174.5L157.3 174.7L156.8 175.6L156.2 176.3L155.2 176.6L154 177L153.3 177.6L152.6 178.3L151.8 178.8L151.2 179.5L150.4 180L149.6 180.5L148.6 180.8L148 181.7L147.2 182.3L146.1 182.4L145.4 183.1L144.6 183.6L143.8 184L142.9 184.4L142.1 184.8L141.4 185.6L140.4 185.8L139.8 186.7L138.6 186.5L137.9 187.2L137 187.6L136.2 188L135.4 188.6L134.4 188.8L133.6 189.4L132.5 189.2L131.6 189.5L131 190.5L129.9 190.4L129.1 190.9L128.1 191L127.3 191.5L126.3 191.6L125.5 192.1L124.5 192.2L123.7 192.7L122.8 193.1H121.8L120.9 193.4L119.9 193.5L118.9 193.6L118.1 194.2H117.1L116.2 194.5L115.3 194.7L115.5 194.5L115.3 195.3L115.1 196.2V196L114.9 195.4V194.9L114 194.7H113L112.1 195L111.1 195.2L110.1 194.8L109.2 195.6L108.2 195.8L107.2 195.5L106.2 195.3L105.3 196H104.3L103.3 195.5L102.3 195.6L101.3 196L100.3 195.5L99.3004 196H98.3004L97.3004 195.8L96.3004 195.7L95.3004 195.9L94.4004 195.5L93.5004 195.2L92.5004 195.3L91.5004 195.6L90.6004 195.1L89.6004 195.2L88.8004 194.4L87.8004 194.8L86.9004 194.5L85.9004 194.6L85.0004 194.1L84.1004 193.9L83.2004 193.7L82.4004 193.1L81.5004 192.9H80.5004L79.6004 192.5L79.2004 193L79.6004 192.6L78.5004 192.8L77.8004 191.9L76.7004 192.1L75.9004 191.3L74.9004 191.2L74.1004 190.5L73.0004 190.8L72.1004 190.5L71.4004 189.7H70.4004L69.5004 189.4L68.6004 188.9L67.9004 188.1L66.7004 188.3L65.9004 187.7L65.2004 187L64.2004 186.9L63.3004 186.6L62.5004 186.1L62.0004 185.1L60.8004 185.4L60.0004 184.8L59.1004 184.4L58.4004 183.7L57.7004 183L56.9004 182.4L55.7004 182.5L55.1004 181.7L54.2004 181.3L53.5004 180.6L52.8004 179.9L52.0004 179.3L51.1004 178.9L50.2004 178.5L49.6004 177.7L48.8004 177.1L47.9004 176.7L47.3004 175.9L46.5004 175.4L45.9004 174.6L45.0004 174.2L44.5004 173.5L43.9004 174.3L44.1004 175.1L44.3004 176L43.9004 176.9L43.5004 177.8L42.8004 177.1L42.4004 176.2L43.2004 175.6L42.3004 174.9L42.0004 174L41.6004 173.2L41.4004 172.2L41.9004 171.3L41.1004 170.7L40.3004 170.1L39.9004 169.2L39.1004 168.7L38.8004 168.6H39.0004L38.3004 167.9L37.4004 167.4L36.7004 166.7L36.4004 165.6L35.8004 164.8L35.5004 164.9H35.2004L34.6004 164.2L33.9004 163.4L33.4004 162.5L32.9004 161.4L32.0004 161.7V162.8V162L31.8004 162.2L31.6004 162.1L31.1004 162.5L31.0004 161.6V160.7L30.7004 159.8L30.5004 158.9L29.6004 158.4L29.4004 157.4L28.4004 157L27.7004 156.3L27.4004 155.3L26.9004 154.5L26.1004 153.9L25.5004 153.2L24.9004 152.1L25.5004 153.2L25.4004 153.9L25.6004 154.8L26.5004 155L26.6004 155.9L26.5004 156.8L27.1004 157.6L26.7004 158.6L27.0004 159.5L27.9004 160.1L28.1004 161L28.5004 161.9L28.9004 162.7L29.5004 163.4L30.2004 164.5L29.6004 163.4L28.7004 163.3L29.4004 164.4L29.0004 163.5L28.1004 163.7L27.3004 163.6L28.3004 164L28.5004 165.1L29.6004 165.4L30.2004 166.2L30.8004 167L31.7004 167.5L32.2004 168.4L32.8004 169.2L33.1004 168.9L33.5004 167.9L33.2004 166.8L33.0004 165.6L33.5004 166.6L33.9004 167.7L35.1004 167.8L34.4004 167.5V166.7L35.0004 166.9L35.7004 167.3L35.4004 168.1L35.6004 168.4L35.7004 169.3L34.8004 170L34.6004 170.7L35.1004 171.5L35.5004 170.6L36.3004 170.3L37.0004 169.6L36.8004 168.7L37.1004 169.6L37.3004 170.5V171.4L37.9004 172.1L38.0004 171.4L37.8004 171.5L38.6004 172.2V173.2L38.5004 174.3L39.4004 174.7L39.9004 175.6L40.5004 176.4L41.3004 176.9L42.1004 177.4L42.7004 178.2L43.5004 178.8H44.7004L45.2004 179.7L45.8004 180.4L46.8004 180.6L47.7004 181L48.6004 181.4L49.1004 182.4L50.1004 182.6L51.0004 183L51.5004 184.1L52.6004 184L53.4004 184.5L54.3004 184.8L55.0004 185.6L55.7004 186.3L56.8004 186.2L57.5004 186.8L58.1004 187.6L58.9004 188.1L60.0004 188L60.7004 188.7L61.7004 188.8L62.3004 189.7H63.3004L64.3004 189.9L65.1004 190.3L65.9004 190.7L67.0004 191L68.0004 191.1L68.7004 192H69.7004L70.6004 192.3L71.4004 192.8L71.0004 191.5L71.6004 192.1L72.2004 192.7L73.1004 192.5L73.8004 192.8L73.9004 192.6L73.7004 192.9L74.8004 193.7L75.3004 194.4L76.2004 194.6L77.0004 194.9L78.0004 194.7L78.9004 195L79.7004 195.6H80.6004L81.5004 195.8L82.6004 196.2L82.7004 195.3H83.5004ZM159.4 175.7L160.6 175.1L160 175.7L159.8 176.2L159.4 175.5L159.3 174.7L159.8 175L159.4 175.7Z" fill="#ED0000"/>
<path d="M168.801 163.6L169.301 162.7L169.401 161.6L168.901 162.3L168.301 163L168.801 163.6Z" fill="#ED0000"/>
<path d="M8.09922 118.9L7.69922 118.1L7.79922 118.6L8.09922 118.9Z" fill="#ED0000"/>
<path d="M8.30039 118.099L8.80039 118.899L9.30039 119.799L9.80039 120.599H11.0004L10.9004 120.199L10.5004 120.099L10.8004 120.199L10.6004 119.199L10.3004 118.199L10.0004 117.199L9.10039 116.699L8.20039 116.299L9.40039 115.599L8.40039 115.299L7.40039 115.199L7.70039 116.199L7.60039 117.299L7.70039 117.599L8.30039 118.099Z" fill="#ED0000"/>
<path d="M20.8008 145.9L21.4008 146.3L22.0008 146.7L21.7008 146.1L21.3008 145.4L20.8008 145.9Z" fill="#ED0000"/>
<path d="M4.09922 112.301L3.69922 112.901L4.09922 112.301Z" fill="#ED0000"/>
<path d="M4.40039 111.5H5.10039L4.90039 110.8L4.70039 110.1L4.40039 111.5Z" fill="#ED0000"/>
<path d="M2.3 108.5L2.6 108.1V107.2V106.3L2.7 105.4L2.8 104.5V103.6L2.9 102.7V101.6L2.8 100.5L2.4 99.6V99.5L2.3 100.3L2.2 101.1L2.1 102L2 102.8V103.7V104.7L2.1 105.6L2.2 106.6V107.5L2.3 108.5Z" fill="#ED0000"/>
<path d="M2.79922 98.1992L2.69922 98.3992L2.79922 98.1992Z" fill="#ED0000"/>
<path d="M154.101 67.9992V67.1992C154.001 67.1992 153.901 67.1992 153.801 67.1992L154.101 67.9992Z" fill="#ED0000"/>
<path d="M151.699 53.3004C154.599 56.8004 157.099 60.6004 159.099 64.8004C159.099 64.5004 159.099 64.2004 159.099 63.9004L159.799 65.9004C159.999 66.2004 160.199 67.1004 160.499 67.8004L159.799 65.9004C159.699 65.8004 159.599 65.8004 159.599 65.9004C159.799 66.3004 159.899 66.7004 160.099 67.1004C160.199 67.1004 159.999 67.1004 159.599 67.2004C159.899 70.4004 161.499 68.0004 162.199 70.1004C162.399 68.7004 163.399 69.7004 164.199 69.2004L163.999 66.9004C165.399 65.8004 164.599 69.2004 165.599 68.8004L164.599 70.6004C165.899 73.5004 165.899 67.2004 166.699 70.1004C166.799 67.8004 167.199 69.1004 166.899 67.4004C167.899 65.0004 168.399 72.2004 168.699 67.9004L168.899 72.8004C169.599 72.8004 169.999 72.9004 169.999 72.9004C170.799 72.9004 170.199 69.4004 169.299 68.9004C164.799 60.8004 158.899 53.5004 152.299 47.4004L153.099 49.6004C152.799 51.2004 152.199 52.1004 151.699 53.3004ZM154.299 49.7004C154.399 51.3004 154.199 52.0004 154.399 53.7004L153.499 52.5004L154.299 49.7004Z" fill="#ED0000"/>
<path d="M107.001 69.9992C108.401 68.8992 110.301 69.0992 112.101 68.1992L111.901 70.8992C112.201 69.1992 113.801 71.0992 114.201 68.9992L114.301 72.3992C114.501 72.3992 114.701 72.3992 114.801 72.3992C114.901 71.8992 115.001 71.0992 115.001 70.2992L115.301 72.2992C115.201 70.2992 115.401 68.6992 115.601 67.1992C112.701 67.1992 109.801 67.1992 106.801 67.1992C106.901 68.0992 106.901 69.0992 107.001 69.9992Z" fill="#ED0000"/>
<path d="M167.2 72.6C167.2 72.4 167.2 72 167.1 71.5C167.1 71.9 167.2 72.2 167.2 72.6Z" fill="#ED0000"/>
<path d="M168.1 72.6006C168.4 72.6006 168.6 72.6006 168.8 72.6006C168.6 71.8006 168.3 72.2006 168.1 72.6006Z" fill="#ED0000"/>
<path d="M148.3 45.9C148.3 46.1 148.2 46.2 148.1 46.2C148.4 48 148.9 48.9 149.5 49.4C150.2 50 150.9 50 151.4 50.2C151.3 49.3 151.8 48.1 152 46.9C150.9 45.9 149.7 44.9 148.6 44C148.7 44.4 148.8 44.7 148.9 44.8C148.7 45.3 148.5 45.6 148.3 45.9Z" fill="#ED0000"/>
<path d="M45.2 67.9993C45.3 67.6993 45.4 67.3993 45.5 67.1993C40.5 67.1993 37.6 67.2993 37.8 67.3993C39.5 64.6993 41.3 62.0993 43.3 59.5993C42.4 58.9993 41.4 57.7993 40.3 59.0993L40.4 59.3993C38.6 58.6993 39.6 62.8993 38.6 64.3993C38.4 64.0993 38.3 63.8993 38.2 63.6993L38 64.6993L37.2 63.7993L38 63.1993C37.7 61.6993 38.7 60.5993 38.1 58.7993C37.4 60.0993 36.8 60.8993 36.1 59.7993C35.6 60.4993 35.1 61.2993 34.6 62.0993C35.3 62.9993 36.3 61.0993 37 61.9993C34.7 60.7993 34 68.5993 31.6 67.1993C31.4 67.5993 31.2 67.9993 31 68.3993L32.7 69.4993C32 69.5993 31.7 71.2993 31.3 72.4993C32.3 72.4993 33.6 72.4993 34.9 72.4993C34.8 72.2993 34.7 71.8993 34.7 71.2993C34.8 69.5993 35.5 70.8993 35.6 71.8993C35.6 70.0993 36.6 71.3993 37.6 72.4993C40.3 72.4993 43.4 72.4993 46.9 72.4993C47 69.2993 45.8 69.7993 45.2 67.9993Z" fill="#ED0000"/>
<path d="M38 58.4008C38.1 58.3008 38.3 58.2008 38.4 58.2008C38.4 58.1008 38.5 58.1008 38.5 58.0008C38.5 58.1008 38.4 58.1008 38.4 58.2008C40.4 57.0008 42.5 55.7008 44.8 57.7008C47.3 54.7008 50.1 52.0008 52.9 49.5008C52.9 49.4008 52.8 49.3008 52.8 49.2008C53 49.4008 53.3 49.0008 53.6 49.0008C56.9 46.2008 60.4 43.8008 64 41.7008L63 38.9008C63.7 35.8008 65 40.3008 65.5 40.0008C65.5 39.9008 65.6 39.8008 65.6 39.7008C65.6 39.9008 65.5 40.0008 65.5 40.0008C65.1 40.8008 64.4 40.1008 64.3 41.5008C67.6 39.6008 71.1 38.0008 74.8 36.7008L73.6 33.4008C74.3 31.7008 74.1 34.7008 74.8 34.3008V33.0008C74.9 34.4008 75.4 35.3008 75.2 36.6008C76.4 36.2008 77.6 35.8008 78.8 35.4008C78.4 34.1008 77.6 33.0008 78.2 31.0008C77.9 31.4008 76.6 29.8008 77.1 32.4008L76.6 30.3008C60.8 35.3008 47.1 45.0008 37.5 57.8008C37.7 58.1008 37.9 58.3008 38 58.4008ZM76.5 33.4008L77.1 35.0008C76.7 36.4008 75.9 35.5008 75.8 35.8008L76.5 33.4008ZM54.6 41.6008L54 44.0008L53.7 42.7008L54.6 41.6008Z" fill="#ED0000"/>
<path d="M149.5 50.8004V49.4004C149.4 49.7004 149.3 50.1004 149.1 50.3004C149.2 50.5004 149.3 50.7004 149.5 50.8004Z" fill="#ED0000"/>
<path d="M30.7008 71L30.6008 71.1C30.4008 71.4 30.2008 71.5 29.9008 71.5C29.2008 71.9 28.4008 72.1 27.3008 72.2C27.5008 72.3 28.6008 72.3 30.7008 72.3C30.8008 72 31.1008 71.8 30.7008 71Z" fill="#ED0000"/>
<path d="M80.1004 33.1004L79.9004 35.0004C86.0004 33.3004 92.5004 32.5004 99.2004 32.6004C99.8004 32.6004 100.3 32.6004 100.9 32.6004L100.1 31.1004L101 31.7004L100.9 32.6004C110.5 32.4004 119.6 34.0004 127.7 37.0004L125.5 35.5004H126.8L127.2 34.8004L128.1 37.2004C128.6 37.4004 129.2 37.6004 129.7 37.9004C129.7 37.2004 129.4 35.3004 130 35.6004C130 36.3004 130.6 36.6004 130.1 36.6004C130.1 37.6004 130.2 38.0004 130.4 38.2004C132.4 39.1004 134.4 40.0004 136.3 41.1004L136.6 39.4004C136.6 40.3004 136.6 40.9004 136.7 41.4004C138.7 42.5004 140.6 43.8004 142.4 45.1004C142.8 41.0004 141.5 43.3004 141.3 40.4004C142.9 38.6004 142.3 45.6004 144 43.5004L143.8 42.8004C144.2 42.1004 144.8 43.7004 145.4 44.0004L144.8 46.1004C144.8 46.4004 144.9 46.7004 145 47.1004C145.9 47.8004 146.8 48.6004 147.6 49.4004C147.8 48.5004 147.9 47.6004 147.7 46.4004C147.7 46.4004 147.6 46.3004 147.6 46.2004L147.3 44.2004C147.5 45.0004 147.6 45.7004 147.7 46.3004C147.8 46.4004 147.9 46.4004 147.9 46.4004C148 46.3004 148.1 46.2004 148.1 46.1004C148.2 45.6004 148.2 44.6004 148 43.9004C147.3 43.4004 146.7 42.8004 146 42.3004C145.7 42.3004 145.5 42.1004 145.3 41.8004C141.4 38.9004 137.3 36.4004 133.2 34.2004V36.3004C132.6 35.8004 132.9 34.9004 133.1 34.1004C132.7 33.9004 132.3 33.7004 132 33.5004C132 34.1004 132.1 34.4004 132.6 34.3004C132.4 35.0004 131.8 37.0004 131.5 35.1004L131.8 33.5004C130.9 33.1004 130.1 32.7004 129.2 32.3004L128.5 33.4004L128.4 32.0004C128 31.8004 127.6 31.7004 127.1 31.5004C127.1 31.5004 127.1 31.5004 127.1 31.6004C126 36.7004 125 27.8004 124.1 32.9004L124.5 34.1004C124.6 34.2004 124.7 34.5004 124.8 34.9004L124.5 34.1004C124 33.2004 124.1 36.9004 123.2 35.0004L123.8 33.6004C123.2 31.0004 122.5 31.6004 122.2 29.8004C120.8 29.3004 119.3 28.9004 117.9 28.5004L118.4 30.3004C117.8 28.7004 117.3 30.4004 117.2 30.7004C117.3 29.8004 117.4 29.0004 117.6 28.3004C112.5 27.0004 107.4 26.4004 102.4 26.4004C93.9004 26.4004 85.6004 27.6004 77.9004 29.9004C78.4004 31.0004 78.8004 32.7004 79.1004 33.9004C79.5004 32.1004 79.5004 32.8004 80.1004 33.1004ZM92.2004 28.0004C92.5004 26.0004 92.9004 27.8004 93.4004 28.7004C93.6004 28.6004 93.8004 28.7004 94.0004 29.1004C94.0004 29.0004 94.1004 29.0004 94.1004 28.9004V27.6004L94.3004 29.9004C94.2004 29.6004 94.1004 29.3004 94.1004 29.1004C93.9004 29.4004 93.7004 29.1004 93.5004 28.7004C92.9004 29.1004 92.3004 31.2004 92.3004 31.7004C91.5004 30.4004 92.2004 29.3004 92.2004 28.0004ZM90.8004 29.1004L91.4004 30.7004L90.4004 31.1004C89.9004 29.9004 91.0004 28.5004 90.8004 29.1004Z" fill="#ED0000"/>
<path d="M124.301 30.1004C124.101 30.0004 124.001 30.0004 123.801 29.9004C124.001 30.1004 124.101 30.1004 124.301 30.1004Z" fill="#ED0000"/>
<path d="M106.3 68.0992C106.3 67.7992 106.3 67.4992 106.3 67.1992C88.4 67.1992 69.6 67.1992 56.2 67.1992C56.2 67.5992 56.1 68.0992 56 68.7992C53.8 68.9992 52.6 72.0992 50.5 71.2992C50.8 71.4992 51 71.9992 51.3 72.5992C56.9 72.5992 63.3 72.5992 70 72.5992L70.1 72.2992L70.6 72.5992C81.5 72.5992 93.4 72.5992 105.1 72.5992C105.1 72.3992 105 72.1992 105 71.9992C106.8 74.3992 105.1 67.1992 106.3 68.0992Z" fill="#ED0000"/>
<path d="M153.101 70.6996L153.501 67.2996L153.301 67.0996C152.801 67.0996 152.201 67.0996 151.601 67.0996C151.401 67.3996 151.201 67.3996 151.101 67.0996C143.601 67.0996 132.101 67.0996 119.301 67.0996C119.601 68.8996 119.801 70.5996 120.001 70.0996V72.2996C123.401 72.2996 126.701 72.2996 129.901 72.2996C129.801 71.3996 129.901 70.2996 129.801 70.2996L130.901 71.4996L130.701 72.2996C131.501 72.2996 132.401 72.2996 133.201 72.2996C133.201 72.1996 133.201 72.0996 133.101 71.9996C133.101 72.0996 133.201 72.1996 133.201 72.2996C134.601 72.2996 136.001 72.2996 137.301 72.2996C139.901 72.2996 142.401 72.2996 144.701 72.2996C144.801 71.4996 144.801 70.7996 144.201 70.6996C145.501 71.1996 145.501 68.5996 146.901 70.4996V68.4996C147.801 67.7996 148.601 71.9996 149.001 67.9996L149.301 71.2996C149.001 70.9996 147.501 70.5996 147.601 72.3996C149.101 72.3996 150.501 72.3996 151.901 72.3996C151.801 71.8996 151.701 71.2996 151.601 70.7996C152.301 70.4996 151.901 68.1996 153.101 70.6996Z" fill="#ED0000"/>
<path d="M116.199 72.4004C116.599 72.4004 116.999 72.4004 117.499 72.4004L117.899 72.0004L117.799 72.4004C118.299 72.4004 118.799 72.4004 119.299 72.4004C118.999 71.3004 118.599 70.1004 118.099 69.4004C117.299 70.0004 116.699 71.2004 116.199 72.4004Z" fill="#ED0000"/>
<path d="M145.301 72.4005C145.801 72.4005 146.401 72.4005 146.901 72.4005C146.501 71.3005 145.801 71.6005 145.301 72.4005Z" fill="#ED0000"/>
<path d="M133.301 173.8C133.501 173.7 133.801 173.6 134.001 173.5C134.101 173.1 134.201 172.7 134.401 172.2C133.801 172.2 133.501 172 133.301 173.8Z" fill="#ED0000"/>
<path d="M99.4008 175.301C99.2008 175.301 99.0008 175.301 98.8008 175.301C98.9008 175.801 99.1008 176.301 99.5008 176.801C99.2008 176.201 99.2008 175.701 99.4008 175.301Z" fill="#ED0000"/>
<path d="M124.101 136.199C123.301 136.199 122.601 136.199 121.801 136.199C121.801 136.199 121.801 136.199 121.801 136.299C122.801 138.599 123.501 137.599 124.101 136.199Z" fill="#ED0000"/>
<path d="M84.5 136C83.1 136 81.7 136 80.3 136L79.4 136.6C79.7 137.4 79.7 138.3 80 138.7L80.1 138.8L80 138.7C79.6 138.3 79.2 137.1 78.6 137.5C78.8 137.8 78.7 138.2 78.9 138.4C77.3 135 75.9 141.1 75 136.9C75 136.9 75 136.9 75 137C75 137.5 75.1 137.8 74.9 138.4C74.9 138.1 74.8 138 74.8 137.8C74.8 138.4 75 139 75.4 138.9C74.5 140.1 74.2 139.7 73.5 138.9L72.7 139.6L72.9 138.3L72.8 138.2C72.5 138.2 72.1 137.7 71.7 137.4L70.9 138.3C70.9 138.4 70.9 138.6 70.9 138.8L71.7 140C70.4 138.9 68.2 141.1 67.2 137.6C69.3 140 69.5 138 70.8 137.4V136H70.7C70.5 136.3 70.3 136.2 70.1 136C69.8 136 69.6 136 69.3 136C69.2 136.8 68.7 137.2 68.6 137.9C67.9 135.3 66.3 137.8 65.4 137.2C65 139.9 66.1 139.1 66.3 139.8C65.3 138.9 65 141.9 64 140.3V140.4L64.1 141.1C79.6 141 100 140.9 118.2 141C118.2 140.9 118.3 140.8 118.3 140.6C118.3 140.7 118.4 140.8 118.4 141C120.4 141 122.3 141 124.2 141C125.3 136 122.7 141.8 122.4 137.9C122.4 138.3 122.4 138.6 122.4 138.8C122.4 138.9 122.5 138.9 122.5 138.9C122.4 138.9 122.4 138.9 122.4 138.8C122.1 138.3 121.8 136.9 121.7 136.3C121.2 136.3 120.7 136.3 120.2 136.3C120.2 136.4 120.2 136.5 120.3 136.5C120.3 136.4 120.2 136.4 120.2 136.3C109.3 136.2 97.8 136.2 86.8 136.1C86.1 136.1 85.5 136.1 84.8 136.1L85.2 137.1C84.6 136.9 84.4 136.5 84.5 136ZM121.6 138.3V140.3L120.2 139.8C120.2 137.1 121.2 138.4 121.6 138.3ZM119.4 137.8C119.7 138.1 119.6 139.1 119.7 140.4L119 138.5C119 137.5 119.1 137.9 119.4 137.8Z" fill="#ED0000"/>
<path d="M36.2004 138.7C36.4004 137.4 36.6004 136.6 36.8004 135.9C35.9004 135.9 35.1004 135.9 34.4004 135.9C34.9004 136.3 35.4004 136.6 35.0004 136.5L33.7004 135.9C33.2004 135.9 32.8004 135.9 32.4004 135.9C32.3004 136.3 32.2004 136.7 33.1004 137.5L34.4004 137.9C35.4004 140.4 32.7004 137.8 31.4004 137.7C32.7004 138.7 34.6004 139.7 34.9004 139.2C35.4004 140.3 35.9004 141.3 36.4004 142.3C36.3004 141.4 36.8004 139.5 36.2004 138.7Z" fill="#ED0000"/>
<path d="M38.4004 145.6V145.7C38.4004 145.7 38.5004 145.7 38.6004 145.7C38.5004 145.8 38.5004 145.7 38.4004 145.6Z" fill="#ED0000"/>
<path d="M73.3 136.9C73.2 137.3 73.1 137.7 73 138.1C73.4 138.2 73.4 137.6 73.3 136.9Z" fill="#ED0000"/>
<path d="M160.2 150.701C159.6 148.401 159.2 151.801 158.6 150.801C158.6 148.101 159.9 149.401 159.5 146.401C159.2 146.401 159 146.401 158.9 146.301C158.7 146.501 158.5 146.701 158.4 146.901V147.101L158.3 146.901C158 147.301 157.7 147.601 157.3 148.001C157.3 149.201 157.2 150.201 157 150.801C156.6 150.401 156.4 149.801 156.3 149.101C152.6 153.201 148.7 157.001 144.7 160.201C144.7 160.601 144.6 161.001 144.5 161.201C145.8 160.401 144.9 166.201 146.5 164.501L146.6 164.401L146.5 164.501C146.3 164.801 146.2 165.301 146.2 165.901C146.5 165.701 146.8 165.501 147.1 165.201C147.1 165.001 147.1 164.701 147.1 164.401C147.4 164.501 147.6 164.601 147.8 164.701C148.7 164.001 149.6 163.301 150.4 162.501C150.4 162.201 150.4 161.801 150.3 161.501C150.4 161.801 150.4 162.101 150.5 162.401C151.3 161.701 152 161.001 152.8 160.201C153 159.901 153.2 159.701 153.3 159.701C154 159.001 154.7 158.301 155.4 157.601L154.9 157.101C154.4 157.401 154 159.301 153.9 155.901L154.9 157.101C155.1 157.001 155.3 157.101 155.4 157.601C155.8 157.201 156.1 156.801 156.5 156.401C156 155.301 156.3 154.301 156 153.101L156.6 156.301C156.9 155.901 157.2 155.601 157.5 155.201V154.601C157.6 154.701 157.7 154.701 157.8 154.801C158.5 154.001 159.1 153.201 159.8 152.301C159.8 152.201 159.7 152.001 159.7 151.701L160.2 150.701Z" fill="#ED0000"/>
<path d="M72.9008 137.801C72.9008 138.001 72.8008 138.001 72.8008 138.101H72.9008V137.801Z" fill="#ED0000"/>
<path d="M139.9 164C139.8 164 139.7 164.1 139.6 164.2C139.7 165.2 139.9 166.5 139.9 166.7C140.5 166.3 140.4 164.8 140.4 163.6C140.3 163.7 140.1 163.9 139.9 164Z" fill="#ED0000"/>
<path d="M40.3 144.3L39.3 144C39.5 144.9 41 145.7 42.5 147C42 147.3 40.2 147 38.8 146V146.1C38.6 146.3 38.5 146.1 38.4 145.8C38.3 145.8 38.3 145.7 38.3 145.6C38.1 145.4 38 145.3 37.9 145.1C44.3 156.7 53.6 165.8 64.7 172.1C64.9 172.1 65.1 172 65.3 171.9C65.2 172 65 172.1 64.8 172.1C68.9 174.4 73.2 176.3 77.8 177.8C77.8 177.7 77.7 177.6 77.7 177.5L77.4 177.1C77.6 177.2 77.7 177.3 77.7 177.5L78 177.8C78.8 178.1 79.6 178.3 80.3 178.5C80.1 178.2 79.9 178 79.5 177.9L80.4 174.3C80.6 175.5 80.7 177.2 81 178.7C87.3 180.5 94 181.4 100.8 181.5C112.1 180.9 122.5 178.5 131.9 174.3C131.5 173.8 131.2 173.3 130.9 173L132.1 172.6L131.7 170.3C131.2 169.7 130.1 169.8 130.2 171.8L130.3 172.1C129.5 171.8 127.5 170 127.6 172.3C127.1 172.7 127 171.8 127 170.9C126.7 171 126.4 171.2 126.1 171.3C126.2 171.5 126.3 171.7 126.4 171.7H126.5H126.4L125.5 171.5C118.5 174.1 111 175.4 102.9 175.2C102 175.2 101.1 175.2 100.2 175.2C100.2 175.3 100.2 175.5 100.2 175.6C98.8 178.1 97.9 181.1 96.8 178.2C96.5 178.2 95.8 176.6 95.1 174.9C94.9 174.9 94.6 174.9 94.4 174.8C94.6 175 94.8 175.4 94.9 176C94.8 175 93.3 177.8 93.5 174.8C90.7 174.5 88 174.1 85.3 173.6L85.2 174.9V173.6C84.9 173.5 84.5 173.5 84.2 173.4C84.1 173.9 83.9 174.5 83.9 175.1C83.4 175.5 82.9 174.2 82.4 173C64.3 168.4 48.8 157.2 39.3 141.7C39.4 141.5 43 141.3 48.9 141.2L47.9 139.6L50.2 140.4L53.3 140.5L53.8 141.1C56.8 141.1 60.2 141 63.9 141C63.8 140.8 63.9 140.5 63.9 140.3L63.7 138.9C63.2 138.9 62.5 137.8 62.3 138.5L62.2 139.7C62.2 139.1 62.2 138.7 62.3 138.5L62.4 137.7C62.3 136 61.7 137.1 61.4 136.8V137.6C61.5 138 61.5 138.3 61.4 138.3C61.4 138.2 61.4 138.1 61.4 138V139C61.2 138.2 61.2 137.5 61.3 136.9C61.2 136.5 61.1 136.1 61 135.7H60.9C60.5 136.7 60.3 136.4 60.1 135.7C57.4 135.7 54.8 135.7 52.4 135.7C52.4 136 52.4 136.4 52.4 136.7L52.3 135.7C50.2 135.7 48.3 135.7 46.5 135.7V136.8L44.3 136.9L44.6 137.7C44.2 138.6 43.9 137.8 43.6 136.9L43.1 136.8L42.5 136.2C42.6 137.1 43 138.4 42.8 138.4L42.1 135.8L41.9 135.6C40.8 135.6 39.8 135.6 38.9 135.6C38.8 135.8 38.8 136.1 38.6 136.2C38.9 137.1 39.3 136.7 39.5 137C39.9 138.6 37.7 139.1 38.6 143L37.3 141.6L37.5 142.9C37.3 142.9 37.2 142.8 37 142.8C37.3 143.5 37.7 144.1 38 144.8C39.1 145.2 36.7 142.8 40.3 144.3ZM53.4 136.5C53.4 138.5 52.9 137.5 52.6 136.3L53.4 136.5Z" fill="#ED0000"/>
<path d="M30.9004 137.301C31.0004 137.401 31.2004 137.601 31.4004 137.701L31.5004 137.601C31.3004 137.501 31.1004 137.401 30.9004 137.301Z" fill="#ED0000"/>
<path d="M70.7996 138.701V138.301L70.5996 138.501L70.7996 138.701Z" fill="#ED0000"/>
<path d="M144.001 161C143.401 161.5 142.901 161.9 142.301 162.3C142.801 162.2 143.401 161.8 144.001 161Z" fill="#ED0000"/>
<path d="M128.4 138.1C128.1 137.8 127.6 139.2 127 140.5C127.1 140.7 127.2 140.8 127.3 141C128.3 141 129.2 141 130.2 141L130.1 139.6C129.7 138 129 143.4 128.8 139.1C129.5 136.2 130.2 139.5 130.7 139.6L131.1 138.6C131 139.4 130.8 139.6 130.7 139.6L130.4 140.3C130.5 140.6 130.6 140.8 130.7 141.1C131.5 141.1 132.3 141.1 133.1 141.1C133.1 141 133.1 141 133.1 140.9C133 140.7 133 140.5 132.9 140.2C132.5 139.8 131.7 140.2 132.3 138.5C132.5 138.9 132.7 139.6 132.9 140.2C133 140.3 133.1 140.5 133.1 140.9C133.1 141 133.1 141 133.2 141.1C133.5 141.1 133.7 141.1 134 141.1C133.9 140.8 133.8 140.5 133.8 140L134.8 140.9V140.2L135.1 141C144.2 141 152 141.1 157 141.1C158 137.5 160.2 142.1 160.7 136.9C161.3 138.6 161.9 140.1 162.5 141.1C162.9 141.1 163.2 141.1 163.3 141.1C163.2 141.3 163 141.4 162.9 141.6C163.3 142 163.6 142.2 164.1 142.2C164 146.7 162.1 146.4 161.8 150.2C164.2 146.9 166.3 143.4 168.3 139.7C170.8 140.1 172 136.6 172.4 136.6C171.5 136.5 157 136.4 137.6 136.2C137.7 136.7 137.8 137.2 137.9 137.8C137.4 137.1 136.9 136.6 136.4 136.2C133.4 136.2 130.3 136.2 127.2 136.1C127 137.5 128.2 136.5 128.4 138.1Z" fill="#ED0000"/>
<path d="M61.3008 136.7C61.4008 136.4 61.5008 136.2 61.6008 135.9C61.5008 135.9 61.4008 135.9 61.3008 135.9C61.3008 136.2 61.3008 136.5 61.3008 136.7Z" fill="#ED0000"/>
<path d="M43.8992 136C43.8992 136 43.8992 135.9 43.7992 135.9H43.6992V136H43.8992Z" fill="#ED0000"/>
<path d="M26.821 115H21.4517V110.474H26.6293C27.6009 110.474 28.4286 110.318 29.1126 110.005C29.8029 109.691 30.3271 109.151 30.685 108.384C31.0494 107.617 31.2315 106.55 31.2315 105.182C31.2315 103.814 31.0462 102.746 30.6754 101.979C30.3111 101.212 29.7741 100.672 29.0646 100.359C28.3615 100.046 27.4986 99.8892 26.4759 99.8892H21.375V95.3636H26.7443C28.7642 95.3636 30.5092 95.7567 31.9794 96.543C33.456 97.3228 34.5938 98.4478 35.3928 99.918C36.1982 101.382 36.6009 103.136 36.6009 105.182C36.6009 107.227 36.2014 108.985 35.4023 110.455C34.6033 111.919 33.4719 113.044 32.0082 113.83C30.5444 114.61 28.8153 115 26.821 115ZM24.5966 95.3636V115H19.2656V95.3636H24.5966ZM16.7344 105.911V103.072H27.0511V105.911H16.7344ZM44.1682 115H38.4154L44.8969 95.3636H52.1839L58.6654 115H52.9126L48.6171 100.771H48.4637L44.1682 115ZM43.0944 107.253H53.9097V111.241H43.0944V107.253ZM45.9324 93.446H43.3245C43.3245 92.0653 43.6409 91.0394 44.2737 90.3683C44.9065 89.6907 45.6768 89.3487 46.5844 89.3423C47.083 89.3423 47.5049 89.4222 47.8501 89.582C48.2016 89.7354 48.5084 89.9176 48.7705 90.1286C49.0326 90.3395 49.2691 90.5249 49.48 90.6847C49.6974 90.8381 49.9211 90.9148 50.1512 90.9148C50.5219 90.9084 50.784 90.7741 50.9374 90.5121C51.0972 90.25 51.1803 89.8857 51.1867 89.419H53.7563C53.7371 90.7741 53.4111 91.8001 52.7783 92.4968C52.1519 93.1935 51.3912 93.5483 50.4964 93.5611C49.9978 93.5675 49.5727 93.4908 49.2211 93.331C48.876 93.1712 48.5756 92.989 48.3199 92.7844C48.0706 92.5735 47.8373 92.3881 47.6199 92.2283C47.4026 92.0685 47.1725 91.9886 46.9296 91.9886C46.6228 91.9886 46.3799 92.1133 46.2009 92.3626C46.0219 92.6055 45.9324 92.9666 45.9324 93.446ZM76.5208 101.5C76.4696 100.861 76.2299 100.362 75.8017 100.004C75.3798 99.6463 74.7374 99.4673 73.8745 99.4673C73.3248 99.4673 72.8741 99.5344 72.5225 99.6687C72.1774 99.7965 71.9217 99.9723 71.7555 100.196C71.5893 100.42 71.503 100.675 71.4966 100.963C71.4838 101.2 71.5254 101.414 71.6213 101.605C71.7235 101.791 71.8833 101.96 72.1007 102.114C72.318 102.261 72.5961 102.395 72.9348 102.516C73.2736 102.638 73.6763 102.746 74.1429 102.842L75.7537 103.188C76.8404 103.418 77.7704 103.721 78.5439 104.098C79.3173 104.475 79.9501 104.92 80.4423 105.431C80.9345 105.936 81.2956 106.505 81.5257 107.138C81.7623 107.771 81.8837 108.461 81.8901 109.209C81.8837 110.5 81.5609 111.593 80.9217 112.488C80.2825 113.383 79.3684 114.064 78.1795 114.53C76.997 114.997 75.5748 115.23 73.9128 115.23C72.2061 115.23 70.7168 114.978 69.4448 114.473C68.1792 113.968 67.1948 113.191 66.4917 112.143C65.7949 111.088 65.4434 109.739 65.437 108.097H70.4995C70.5314 108.697 70.6816 109.202 70.9501 109.612C71.2186 110.021 71.5957 110.331 72.0815 110.542C72.5737 110.752 73.1586 110.858 73.8361 110.858C74.405 110.858 74.8812 110.788 75.2647 110.647C75.6483 110.506 75.9391 110.311 76.1373 110.062C76.3354 109.813 76.4377 109.528 76.4441 109.209C76.4377 108.908 76.3386 108.646 76.1468 108.423C75.9615 108.192 75.6547 107.988 75.2264 107.809C74.7981 107.624 74.2196 107.451 73.4909 107.291L71.535 106.869C69.7963 106.492 68.4252 105.863 67.4217 104.98C66.4245 104.092 65.9292 102.881 65.9355 101.347C65.9292 100.1 66.2615 99.0103 66.9327 98.0771C67.6103 97.1374 68.5467 96.4055 69.742 95.8814C70.9437 95.3572 72.3212 95.0952 73.8745 95.0952C75.4597 95.0952 76.8308 95.3604 77.9877 95.891C79.1447 96.4215 80.0364 97.1694 80.6628 98.1346C81.2956 99.0934 81.6152 100.215 81.6216 101.5H76.5208ZM102.596 94.9801H105.51C105.51 96.3224 105.344 97.4826 105.012 98.4606C104.679 99.4322 104.082 100.183 103.219 100.714C102.356 101.238 101.125 101.5 99.5273 101.5V99.1605C100.563 99.1605 101.292 98.9879 101.713 98.6428C102.142 98.2976 102.394 97.8118 102.471 97.1854C102.554 96.5589 102.596 95.8239 102.596 94.9801ZM95.5387 95.3636H100.87V107.943C100.87 109.439 100.512 110.733 99.7958 111.826C99.0863 112.913 98.0955 113.754 96.8235 114.348C95.5515 114.936 94.0749 115.23 92.3938 115.23C90.6999 115.23 89.217 114.936 87.945 114.348C86.6729 113.754 85.6822 112.913 84.9727 111.826C84.2695 110.733 83.918 109.439 83.918 107.943V95.3636H89.2489V107.483C89.2489 108.09 89.3832 108.634 89.6516 109.113C89.9201 109.586 90.2908 109.957 90.7638 110.225C91.2433 110.494 91.7866 110.628 92.3938 110.628C93.0075 110.628 93.5508 110.494 94.0238 110.225C94.4968 109.957 94.8675 109.586 95.136 109.113C95.4045 108.634 95.5387 108.09 95.5387 107.483V95.3636ZM94.2347 93.1776H90.4379L90.0927 91.6818C90.7766 91.6626 91.2624 91.5763 91.5501 91.4229C91.8441 91.2695 91.9847 91.0874 91.9719 90.8764C91.9847 90.5312 91.8185 90.3107 91.4734 90.2148C91.1346 90.119 90.6999 90.071 90.1694 90.071L90.2844 87.9616C92.2532 87.9616 93.7521 88.1918 94.7812 88.652C95.8104 89.1122 96.3185 89.7642 96.3058 90.608C96.3185 91.1449 96.1076 91.5604 95.6729 91.8544C95.2447 92.1484 94.7653 92.3338 94.2347 92.4105V93.1776ZM110.139 115H104.386L110.868 95.3636H118.155L124.636 115H118.883L114.588 100.771H114.434L110.139 115ZM109.065 107.253H119.88V111.241H109.065V107.253ZM139.462 115H134.092V110.474H139.27C140.241 110.474 141.069 110.318 141.753 110.005C142.444 109.691 142.968 109.151 143.326 108.384C143.69 107.617 143.872 106.55 143.872 105.182C143.872 103.814 143.687 102.746 143.316 101.979C142.952 101.212 142.415 100.672 141.705 100.359C141.002 100.046 140.139 99.8892 139.116 99.8892H134.016V95.3636H139.385C141.405 95.3636 143.15 95.7567 144.62 96.543C146.097 97.3228 147.234 98.4478 148.033 99.918C148.839 101.382 149.241 103.136 149.241 105.182C149.241 107.227 148.842 108.985 148.043 110.455C147.244 111.919 146.113 113.044 144.649 113.83C143.185 114.61 141.456 115 139.462 115ZM137.237 95.3636V115H131.906V95.3636H137.237ZM129.375 105.911V103.072H139.692V105.911H129.375ZM170.731 105.182C170.731 107.368 170.306 109.212 169.456 110.714C168.605 112.21 167.458 113.344 166.013 114.118C164.569 114.885 162.958 115.268 161.181 115.268C159.391 115.268 157.774 114.882 156.329 114.108C154.891 113.328 153.747 112.191 152.897 110.695C152.053 109.193 151.631 107.355 151.631 105.182C151.631 102.996 152.053 101.155 152.897 99.6591C153.747 98.157 154.891 97.0224 156.329 96.2553C157.774 95.4819 159.391 95.0952 161.181 95.0952C162.958 95.0952 164.569 95.4819 166.013 96.2553C167.458 97.0224 168.605 98.157 169.456 99.6591C170.306 101.155 170.731 102.996 170.731 105.182ZM165.246 105.182C165.246 104.006 165.09 103.015 164.777 102.21C164.47 101.398 164.013 100.784 163.405 100.369C162.805 99.9467 162.063 99.7358 161.181 99.7358C160.299 99.7358 159.554 99.9467 158.947 100.369C158.346 100.784 157.889 101.398 157.576 102.21C157.269 103.015 157.116 104.006 157.116 105.182C157.116 106.358 157.269 107.352 157.576 108.164C157.889 108.969 158.346 109.583 158.947 110.005C159.554 110.42 160.299 110.628 161.181 110.628C162.063 110.628 162.805 110.42 163.405 110.005C164.013 109.583 164.47 108.969 164.777 108.164C165.09 107.352 165.246 106.358 165.246 105.182ZM162.217 91.2599L166.09 93.9062H162.984L161.181 92.7173L159.302 93.9062H156.195L160.069 91.2599H162.217ZM167.279 92.3338H164.824L164.518 91.1065C165.074 91.0874 165.473 91.017 165.716 90.8956C165.965 90.7741 166.09 90.6271 166.09 90.4545C166.09 90.1669 165.943 89.9815 165.649 89.8984C165.361 89.8089 164.997 89.7642 164.556 89.7642L164.671 88.0384C166.071 88.0384 167.142 88.2269 167.883 88.604C168.631 88.9748 169.005 89.5149 169.005 90.2244C169.005 90.6463 168.823 90.9819 168.458 91.2312C168.094 91.4805 167.701 91.6435 167.279 91.7202V92.3338ZM178.528 95.3636V115H173.197V95.3636H178.528Z" fill="#ED0000"/>
</g>
<defs>
<clipPath id="clip0_6416_76722">
<rect width="203.8" height="210.1" fill="white"/>
</clipPath>
</defs>
</svg>
