<svg width="20" height="20" viewBox="0 0 20 20" fill="none" xmlns="http://www.w3.org/2000/svg">
<path d="M7.75 18.1314C8.16421 18.1314 8.5 17.7779 8.5 17.3419C8.5 16.9059 8.16421 16.5524 7.75 16.5524C7.33579 16.5524 7 16.9059 7 17.3419C7 17.7779 7.33579 18.1314 7.75 18.1314Z" stroke="#6A6A6A" stroke-width="1.5" stroke-linecap="round" stroke-linejoin="round"/>
<path d="M16 18.1314C16.4142 18.1314 16.75 17.7779 16.75 17.3419C16.75 16.9059 16.4142 16.5524 16 16.5524C15.5858 16.5524 15.25 16.9059 15.25 17.3419C15.25 17.7779 15.5858 18.1314 16 18.1314Z" stroke="#6A6A6A" stroke-width="1.5" stroke-linecap="round" stroke-linejoin="round"/>
<path d="M1.75 1.55251H4.75L6.76 12.1236C6.82858 12.487 7.01643 12.8135 7.29066 13.0459C7.56489 13.2783 7.90802 13.4017 8.26 13.3946H15.55C15.902 13.4017 16.2451 13.2783 16.5193 13.0459C16.7936 12.8135 16.9814 12.487 17.05 12.1236L18.25 5.49987H5.5" stroke="#6A6A6A" stroke-width="1.5" stroke-linecap="round" stroke-linejoin="round"/>
</svg>
