<svg width="20" height="21" viewBox="0 0 20 21" fill="none" xmlns="http://www.w3.org/2000/svg">
<g clip-path="url(#clip0_5184_76811)">
<path d="M19.3746 8.80565L11.5088 0.939883C10.6749 0.106055 9.32523 0.105898 8.49121 0.939883L0.625444 8.80565C-0.208462 9.63951 -0.208501 10.9894 0.625444 11.8233L8.49121 19.689C9.32511 20.5229 10.6748 20.523 11.5088 19.689L19.3746 11.8233C20.2085 10.9894 20.2085 9.63955 19.3746 8.80565ZM18.4907 10.9394L10.625 18.8052C10.2795 19.1506 9.72052 19.1506 9.37503 18.8052L1.50927 10.9394C1.1639 10.594 1.16386 10.035 1.50927 9.68947L9.37503 1.82375C9.72049 1.47833 10.2795 1.4783 10.625 1.82375L18.4907 9.68951C18.4907 9.70053 18.7496 9.90325 18.7496 10.3145C18.7496 10.5506 18.6577 10.7725 18.4907 10.9394Z" fill="#6E7A8A"/>
<path d="M14.584 8.37394C14.535 8.2998 14.686 8.4605 12.3874 6.12596C12.1452 5.87999 11.7495 5.87691 11.5035 6.11912C11.2576 6.3613 11.2545 6.75698 11.4967 7.00291L12.6033 8.12684H6.56247C6.21729 8.12684 5.9375 8.40667 5.9375 8.75181V12.8141C5.9375 13.1593 6.21729 13.4391 6.56247 13.4391C6.90765 13.4391 7.18744 13.1593 7.18744 12.8141V9.37678H12.536L11.4294 10.5007C11.0393 10.8968 11.3252 11.5642 11.8746 11.5642C12.0362 11.5642 12.1977 11.5019 12.32 11.3777L14.371 9.29464C14.7191 9.09609 14.7649 8.64775 14.584 8.37394V8.37394Z" fill="#6E7A8A"/>
</g>
<defs>
<clipPath id="clip0_5184_76811">
<rect width="20" height="20" fill="white" transform="translate(0 0.314453)"/>
</clipPath>
</defs>
</svg>
