<svg width="20" height="20" viewBox="0 0 20 20" fill="none" xmlns="http://www.w3.org/2000/svg">
<g clip-path="url(#clip0_5327_6203)">
<path d="M8.12459 9.16667C9.96554 9.16667 11.4579 7.67428 11.4579 5.83333C11.4579 3.99238 9.96554 2.5 8.12459 2.5C6.28364 2.5 4.79126 3.99238 4.79126 5.83333C4.79126 7.67428 6.28364 9.16667 8.12459 9.16667Z" stroke="#6E7A8A" stroke-linecap="round" stroke-linejoin="round"/>
<path d="M1.45874 15.6669C1.45874 13.4577 3.2496 11.6669 5.45874 11.6669H10.7921C13.0012 11.6669 14.7921 13.4577 14.7921 15.6669V16.5002C14.7921 17.0525 14.3444 17.5002 13.7921 17.5002H2.45874C1.90645 17.5002 1.45874 17.0525 1.45874 16.5002V15.6669Z" stroke="#6E7A8A"/>
</g>
<defs>
<clipPath id="clip0_5327_6203">
<rect width="20" height="20" fill="white"/>
</clipPath>
</defs>
</svg>
